geometries:
  coil:
    coils:
      1:
        poles:
          1:
            layers:
              1:
                windings:
                  1:
                    blocks:
                      1:
                        half_turns:
                          points:
                            35ih: 109
                            35il: 110
                            35oh: 111
                            35ol: 112
                            34ih: 117
                            34il: 118
                            34oh: 119
                            34ol: 120
                            33ih: 125
                            33il: 126
                            33oh: 127
                            33ol: 128
                            32ih: 133
                            32il: 134
                            32oh: 135
                            32ol: 136
                            31ih: 141
                            31il: 142
                            31oh: 143
                            31ol: 144
                            30ih: 149
                            30il: 150
                            30oh: 151
                            30ol: 152
                            29ih: 157
                            29il: 158
                            29oh: 159
                            29ol: 160
                            28ih: 165
                            28il: 166
                            28oh: 167
                            28ol: 168
                            27ih: 173
                            27il: 174
                            27oh: 175
                            27ol: 176
                            26ih: 181
                            26il: 182
                            26oh: 183
                            26ol: 184
                            25ih: 189
                            25il: 190
                            25oh: 191
                            25ol: 192
                            24ih: 197
                            24il: 198
                            24oh: 199
                            24ol: 200
                            23ih: 205
                            23il: 206
                            23oh: 207
                            23ol: 208
                            22ih: 213
                            22il: 214
                            22oh: 215
                            22ol: 216
                            21ih: 221
                            21il: 222
                            21oh: 223
                            21ol: 224
                            20ih: 229
                            20il: 230
                            20oh: 231
                            20ol: 232
                            19ih: 237
                            19il: 238
                            19oh: 239
                            19ol: 240
                            18ih: 245
                            18il: 246
                            18oh: 247
                            18ol: 248
                            17ih: 253
                            17il: 254
                            17oh: 255
                            17ol: 256
                            16ih: 261
                            16il: 262
                            16oh: 263
                            16ol: 264
                            15ih: 269
                            15il: 270
                            15oh: 271
                            15ol: 272
                            14ih: 277
                            14il: 278
                            14oh: 279
                            14ol: 280
                            13ih: 285
                            13il: 286
                            13oh: 287
                            13ol: 288
                            12ih: 293
                            12il: 294
                            12oh: 295
                            12ol: 296
                            11ih: 301
                            11il: 302
                            11oh: 303
                            11ol: 304
                            10ih: 309
                            10il: 310
                            10oh: 311
                            10ol: 312
                            9ih: 317
                            9il: 318
                            9oh: 319
                            9ol: 320
                            8ih: 325
                            8il: 326
                            8oh: 327
                            8ol: 328
                            7ih: 333
                            7il: 334
                            7oh: 335
                            7ol: 336
                            6ih: 341
                            6il: 342
                            6oh: 343
                            6ol: 344
                            5ih: 349
                            5il: 350
                            5oh: 351
                            5ol: 352
                            4ih: 357
                            4il: 358
                            4oh: 359
                            4ol: 360
                            3ih: 365
                            3il: 366
                            3oh: 367
                            3ol: 368
                            2ih: 373
                            2il: 374
                            2oh: 375
                            2ol: 376
                            1ih: 381
                            1il: 382
                            1oh: 383
                            1ol: 384
                          lines:
                            35i: 67
                            35o: 69
                            35l: 68
                            35h: 70
                            34i: 71
                            34o: 73
                            34l: 72
                            34h: 74
                            33i: 75
                            33o: 77
                            33l: 76
                            33h: 78
                            32i: 79
                            32o: 81
                            32l: 80
                            32h: 82
                            31i: 83
                            31o: 85
                            31l: 84
                            31h: 86
                            30i: 87
                            30o: 89
                            30l: 88
                            30h: 90
                            29i: 91
                            29o: 93
                            29l: 92
                            29h: 94
                            28i: 95
                            28o: 97
                            28l: 96
                            28h: 98
                            27i: 99
                            27o: 101
                            27l: 100
                            27h: 102
                            26i: 103
                            26o: 105
                            26l: 104
                            26h: 106
                            25i: 107
                            25o: 109
                            25l: 108
                            25h: 110
                            24i: 111
                            24o: 113
                            24l: 112
                            24h: 114
                            23i: 115
                            23o: 117
                            23l: 116
                            23h: 118
                            22i: 119
                            22o: 121
                            22l: 120
                            22h: 122
                            21i: 123
                            21o: 125
                            21l: 124
                            21h: 126
                            20i: 127
                            20o: 129
                            20l: 128
                            20h: 130
                            19i: 131
                            19o: 133
                            19l: 132
                            19h: 134
                            18i: 135
                            18o: 137
                            18l: 136
                            18h: 138
                            17i: 139
                            17o: 141
                            17l: 140
                            17h: 142
                            16i: 143
                            16o: 145
                            16l: 144
                            16h: 146
                            15i: 147
                            15o: 149
                            15l: 148
                            15h: 150
                            14i: 151
                            14o: 153
                            14l: 152
                            14h: 154
                            13i: 155
                            13o: 157
                            13l: 156
                            13h: 158
                            12i: 159
                            12o: 161
                            12l: 160
                            12h: 162
                            11i: 163
                            11o: 165
                            11l: 164
                            11h: 166
                            10i: 167
                            10o: 169
                            10l: 168
                            10h: 170
                            9i: 171
                            9o: 173
                            9l: 172
                            9h: 174
                            8i: 175
                            8o: 177
                            8l: 176
                            8h: 178
                            7i: 179
                            7o: 181
                            7l: 180
                            7h: 182
                            6i: 183
                            6o: 185
                            6l: 184
                            6h: 186
                            5i: 187
                            5o: 189
                            5l: 188
                            5h: 190
                            4i: 191
                            4o: 193
                            4l: 192
                            4h: 194
                            3i: 195
                            3o: 197
                            3l: 196
                            3h: 198
                            2i: 199
                            2o: 201
                            2l: 200
                            2h: 202
                            1i: 203
                            1o: 205
                            1l: 204
                            1h: 206
                          areas:
                            '35':
                              loop: 17
                              surface: 9
                            '34':
                              loop: 18
                              surface: 10
                            '33':
                              loop: 19
                              surface: 11
                            '32':
                              loop: 20
                              surface: 12
                            '31':
                              loop: 21
                              surface: 13
                            '30':
                              loop: 22
                              surface: 14
                            '29':
                              loop: 23
                              surface: 15
                            '28':
                              loop: 24
                              surface: 16
                            '27':
                              loop: 25
                              surface: 17
                            '26':
                              loop: 26
                              surface: 18
                            '25':
                              loop: 27
                              surface: 19
                            '24':
                              loop: 28
                              surface: 20
                            '23':
                              loop: 29
                              surface: 21
                            '22':
                              loop: 30
                              surface: 22
                            '21':
                              loop: 31
                              surface: 23
                            '20':
                              loop: 32
                              surface: 24
                            '19':
                              loop: 33
                              surface: 25
                            '18':
                              loop: 34
                              surface: 26
                            '17':
                              loop: 35
                              surface: 27
                            '16':
                              loop: 36
                              surface: 28
                            '15':
                              loop: 37
                              surface: 29
                            '14':
                              loop: 38
                              surface: 30
                            '13':
                              loop: 39
                              surface: 31
                            '12':
                              loop: 40
                              surface: 32
                            '11':
                              loop: 41
                              surface: 33
                            '10':
                              loop: 42
                              surface: 34
                            '9':
                              loop: 43
                              surface: 35
                            '8':
                              loop: 44
                              surface: 36
                            '7':
                              loop: 45
                              surface: 37
                            '6':
                              loop: 46
                              surface: 38
                            '5':
                              loop: 47
                              surface: 39
                            '4':
                              loop: 48
                              surface: 40
                            '3':
                              loop: 49
                              surface: 41
                            '2':
                              loop: 50
                              surface: 42
                            '1':
                              loop: 51
                              surface: 43
                        insulation:
                          points:
                            35ih: 113
                            35il: 114
                            35oh: 115
                            35ol: 116
                            34ih: 121
                            34il: 122
                            34oh: 123
                            34ol: 124
                            33ih: 129
                            33il: 130
                            33oh: 131
                            33ol: 132
                            32ih: 137
                            32il: 138
                            32oh: 139
                            32ol: 140
                            31ih: 145
                            31il: 146
                            31oh: 147
                            31ol: 148
                            30ih: 153
                            30il: 154
                            30oh: 155
                            30ol: 156
                            29ih: 161
                            29il: 162
                            29oh: 163
                            29ol: 164
                            28ih: 169
                            28il: 170
                            28oh: 171
                            28ol: 172
                            27ih: 177
                            27il: 178
                            27oh: 179
                            27ol: 180
                            26ih: 185
                            26il: 186
                            26oh: 187
                            26ol: 188
                            25ih: 193
                            25il: 194
                            25oh: 195
                            25ol: 196
                            24ih: 201
                            24il: 202
                            24oh: 203
                            24ol: 204
                            23ih: 209
                            23il: 210
                            23oh: 211
                            23ol: 212
                            22ih: 217
                            22il: 218
                            22oh: 219
                            22ol: 220
                            21ih: 225
                            21il: 226
                            21oh: 227
                            21ol: 228
                            20ih: 233
                            20il: 234
                            20oh: 235
                            20ol: 236
                            19ih: 241
                            19il: 242
                            19oh: 243
                            19ol: 244
                            18ih: 249
                            18il: 250
                            18oh: 251
                            18ol: 252
                            17ih: 257
                            17il: 258
                            17oh: 259
                            17ol: 260
                            16ih: 265
                            16il: 266
                            16oh: 267
                            16ol: 268
                            15ih: 273
                            15il: 274
                            15oh: 275
                            15ol: 276
                            14ih: 281
                            14il: 282
                            14oh: 283
                            14ol: 284
                            13ih: 289
                            13il: 290
                            13oh: 291
                            13ol: 292
                            12ih: 297
                            12il: 298
                            12oh: 299
                            12ol: 300
                            11ih: 305
                            11il: 306
                            11oh: 307
                            11ol: 308
                            10ih: 313
                            10il: 314
                            10oh: 315
                            10ol: 316
                            9ih: 321
                            9il: 322
                            9oh: 323
                            9ol: 324
                            8ih: 329
                            8il: 330
                            8oh: 331
                            8ol: 332
                            7ih: 337
                            7il: 338
                            7oh: 339
                            7ol: 340
                            6ih: 345
                            6il: 346
                            6oh: 347
                            6ol: 348
                            5ih: 353
                            5il: 354
                            5oh: 355
                            5ol: 356
                            4ih: 361
                            4il: 362
                            4oh: 363
                            4ol: 364
                            3ih: 369
                            3il: 370
                            3oh: 371
                            3ol: 372
                            2ih: 377
                            2il: 378
                            2oh: 379
                            2ol: 380
                            1ih: 385
                            1il: 386
                            1oh: 387
                            1ol: 388
                          lines: {}
                          areas:
                            '1':
                              loop: null
                              surface: null
                        current_sign: 1
                      3:
                        half_turns:
                          points:
                            71ih: 389
                            71il: 390
                            71oh: 391
                            71ol: 392
                            72ih: 397
                            72il: 398
                            72oh: 399
                            72ol: 400
                            73ih: 405
                            73il: 406
                            73oh: 407
                            73ol: 408
                            74ih: 413
                            74il: 414
                            74oh: 415
                            74ol: 416
                            75ih: 421
                            75il: 422
                            75oh: 423
                            75ol: 424
                            76ih: 429
                            76il: 430
                            76oh: 431
                            76ol: 432
                            77ih: 437
                            77il: 438
                            77oh: 439
                            77ol: 440
                            78ih: 445
                            78il: 446
                            78oh: 447
                            78ol: 448
                            79ih: 453
                            79il: 454
                            79oh: 455
                            79ol: 456
                            80ih: 461
                            80il: 462
                            80oh: 463
                            80ol: 464
                            81ih: 469
                            81il: 470
                            81oh: 471
                            81ol: 472
                            82ih: 477
                            82il: 478
                            82oh: 479
                            82ol: 480
                            83ih: 485
                            83il: 486
                            83oh: 487
                            83ol: 488
                            84ih: 493
                            84il: 494
                            84oh: 495
                            84ol: 496
                            85ih: 501
                            85il: 502
                            85oh: 503
                            85ol: 504
                            86ih: 509
                            86il: 510
                            86oh: 511
                            86ol: 512
                            87ih: 517
                            87il: 518
                            87oh: 519
                            87ol: 520
                            88ih: 525
                            88il: 526
                            88oh: 527
                            88ol: 528
                            89ih: 533
                            89il: 534
                            89oh: 535
                            89ol: 536
                            90ih: 541
                            90il: 542
                            90oh: 543
                            90ol: 544
                            91ih: 549
                            91il: 550
                            91oh: 551
                            91ol: 552
                            92ih: 557
                            92il: 558
                            92oh: 559
                            92ol: 560
                            93ih: 565
                            93il: 566
                            93oh: 567
                            93ol: 568
                            94ih: 573
                            94il: 574
                            94oh: 575
                            94ol: 576
                            95ih: 581
                            95il: 582
                            95oh: 583
                            95ol: 584
                            96ih: 589
                            96il: 590
                            96oh: 591
                            96ol: 592
                            97ih: 597
                            97il: 598
                            97oh: 599
                            97ol: 600
                            98ih: 605
                            98il: 606
                            98oh: 607
                            98ol: 608
                            99ih: 613
                            99il: 614
                            99oh: 615
                            99ol: 616
                            100ih: 621
                            100il: 622
                            100oh: 623
                            100ol: 624
                            101ih: 629
                            101il: 630
                            101oh: 631
                            101ol: 632
                            102ih: 637
                            102il: 638
                            102oh: 639
                            102ol: 640
                            103ih: 645
                            103il: 646
                            103oh: 647
                            103ol: 648
                            104ih: 653
                            104il: 654
                            104oh: 655
                            104ol: 656
                            105ih: 661
                            105il: 662
                            105oh: 663
                            105ol: 664
                          lines:
                            71i: 207
                            71o: 209
                            71l: 208
                            71h: 210
                            72i: 211
                            72o: 213
                            72l: 212
                            72h: 214
                            73i: 215
                            73o: 217
                            73l: 216
                            73h: 218
                            74i: 219
                            74o: 221
                            74l: 220
                            74h: 222
                            75i: 223
                            75o: 225
                            75l: 224
                            75h: 226
                            76i: 227
                            76o: 229
                            76l: 228
                            76h: 230
                            77i: 231
                            77o: 233
                            77l: 232
                            77h: 234
                            78i: 235
                            78o: 237
                            78l: 236
                            78h: 238
                            79i: 239
                            79o: 241
                            79l: 240
                            79h: 242
                            80i: 243
                            80o: 245
                            80l: 244
                            80h: 246
                            81i: 247
                            81o: 249
                            81l: 248
                            81h: 250
                            82i: 251
                            82o: 253
                            82l: 252
                            82h: 254
                            83i: 255
                            83o: 257
                            83l: 256
                            83h: 258
                            84i: 259
                            84o: 261
                            84l: 260
                            84h: 262
                            85i: 263
                            85o: 265
                            85l: 264
                            85h: 266
                            86i: 267
                            86o: 269
                            86l: 268
                            86h: 270
                            87i: 271
                            87o: 273
                            87l: 272
                            87h: 274
                            88i: 275
                            88o: 277
                            88l: 276
                            88h: 278
                            89i: 279
                            89o: 281
                            89l: 280
                            89h: 282
                            90i: 283
                            90o: 285
                            90l: 284
                            90h: 286
                            91i: 287
                            91o: 289
                            91l: 288
                            91h: 290
                            92i: 291
                            92o: 293
                            92l: 292
                            92h: 294
                            93i: 295
                            93o: 297
                            93l: 296
                            93h: 298
                            94i: 299
                            94o: 301
                            94l: 300
                            94h: 302
                            95i: 303
                            95o: 305
                            95l: 304
                            95h: 306
                            96i: 307
                            96o: 309
                            96l: 308
                            96h: 310
                            97i: 311
                            97o: 313
                            97l: 312
                            97h: 314
                            98i: 315
                            98o: 317
                            98l: 316
                            98h: 318
                            99i: 319
                            99o: 321
                            99l: 320
                            99h: 322
                            100i: 323
                            100o: 325
                            100l: 324
                            100h: 326
                            101i: 327
                            101o: 329
                            101l: 328
                            101h: 330
                            102i: 331
                            102o: 333
                            102l: 332
                            102h: 334
                            103i: 335
                            103o: 337
                            103l: 336
                            103h: 338
                            104i: 339
                            104o: 341
                            104l: 340
                            104h: 342
                            105i: 343
                            105o: 345
                            105l: 344
                            105h: 346
                          areas:
                            '71':
                              loop: 52
                              surface: 44
                            '72':
                              loop: 53
                              surface: 45
                            '73':
                              loop: 54
                              surface: 46
                            '74':
                              loop: 55
                              surface: 47
                            '75':
                              loop: 56
                              surface: 48
                            '76':
                              loop: 57
                              surface: 49
                            '77':
                              loop: 58
                              surface: 50
                            '78':
                              loop: 59
                              surface: 51
                            '79':
                              loop: 60
                              surface: 52
                            '80':
                              loop: 61
                              surface: 53
                            '81':
                              loop: 62
                              surface: 54
                            '82':
                              loop: 63
                              surface: 55
                            '83':
                              loop: 64
                              surface: 56
                            '84':
                              loop: 65
                              surface: 57
                            '85':
                              loop: 66
                              surface: 58
                            '86':
                              loop: 67
                              surface: 59
                            '87':
                              loop: 68
                              surface: 60
                            '88':
                              loop: 69
                              surface: 61
                            '89':
                              loop: 70
                              surface: 62
                            '90':
                              loop: 71
                              surface: 63
                            '91':
                              loop: 72
                              surface: 64
                            '92':
                              loop: 73
                              surface: 65
                            '93':
                              loop: 74
                              surface: 66
                            '94':
                              loop: 75
                              surface: 67
                            '95':
                              loop: 76
                              surface: 68
                            '96':
                              loop: 77
                              surface: 69
                            '97':
                              loop: 78
                              surface: 70
                            '98':
                              loop: 79
                              surface: 71
                            '99':
                              loop: 80
                              surface: 72
                            '100':
                              loop: 81
                              surface: 73
                            '101':
                              loop: 82
                              surface: 74
                            '102':
                              loop: 83
                              surface: 75
                            '103':
                              loop: 84
                              surface: 76
                            '104':
                              loop: 85
                              surface: 77
                            '105':
                              loop: 86
                              surface: 78
                        insulation:
                          points:
                            71ih: 393
                            71il: 394
                            71oh: 395
                            71ol: 396
                            72ih: 401
                            72il: 402
                            72oh: 403
                            72ol: 404
                            73ih: 409
                            73il: 410
                            73oh: 411
                            73ol: 412
                            74ih: 417
                            74il: 418
                            74oh: 419
                            74ol: 420
                            75ih: 425
                            75il: 426
                            75oh: 427
                            75ol: 428
                            76ih: 433
                            76il: 434
                            76oh: 435
                            76ol: 436
                            77ih: 441
                            77il: 442
                            77oh: 443
                            77ol: 444
                            78ih: 449
                            78il: 450
                            78oh: 451
                            78ol: 452
                            79ih: 457
                            79il: 458
                            79oh: 459
                            79ol: 460
                            80ih: 465
                            80il: 466
                            80oh: 467
                            80ol: 468
                            81ih: 473
                            81il: 474
                            81oh: 475
                            81ol: 476
                            82ih: 481
                            82il: 482
                            82oh: 483
                            82ol: 484
                            83ih: 489
                            83il: 490
                            83oh: 491
                            83ol: 492
                            84ih: 497
                            84il: 498
                            84oh: 499
                            84ol: 500
                            85ih: 505
                            85il: 506
                            85oh: 507
                            85ol: 508
                            86ih: 513
                            86il: 514
                            86oh: 515
                            86ol: 516
                            87ih: 521
                            87il: 522
                            87oh: 523
                            87ol: 524
                            88ih: 529
                            88il: 530
                            88oh: 531
                            88ol: 532
                            89ih: 537
                            89il: 538
                            89oh: 539
                            89ol: 540
                            90ih: 545
                            90il: 546
                            90oh: 547
                            90ol: 548
                            91ih: 553
                            91il: 554
                            91oh: 555
                            91ol: 556
                            92ih: 561
                            92il: 562
                            92oh: 563
                            92ol: 564
                            93ih: 569
                            93il: 570
                            93oh: 571
                            93ol: 572
                            94ih: 577
                            94il: 578
                            94oh: 579
                            94ol: 580
                            95ih: 585
                            95il: 586
                            95oh: 587
                            95ol: 588
                            96ih: 593
                            96il: 594
                            96oh: 595
                            96ol: 596
                            97ih: 601
                            97il: 602
                            97oh: 603
                            97ol: 604
                            98ih: 609
                            98il: 610
                            98oh: 611
                            98ol: 612
                            99ih: 617
                            99il: 618
                            99oh: 619
                            99ol: 620
                            100ih: 625
                            100il: 626
                            100oh: 627
                            100ol: 628
                            101ih: 633
                            101il: 634
                            101oh: 635
                            101ol: 636
                            102ih: 641
                            102il: 642
                            102oh: 643
                            102ol: 644
                            103ih: 649
                            103il: 650
                            103oh: 651
                            103ol: 652
                            104ih: 657
                            104il: 658
                            104oh: 659
                            104ol: 660
                            105ih: 665
                            105il: 666
                            105oh: 667
                            105ol: 668
                          lines: {}
                          areas:
                            '3':
                              loop: null
                              surface: null
                        current_sign: -1
                    conductor_name: SMC11T150
                    conductors_number: 35
          2:
            layers:
              1:
                windings:
                  2:
                    blocks:
                      2:
                        half_turns:
                          points:
                            70ih: 669
                            70il: 670
                            70oh: 671
                            70ol: 672
                            69ih: 677
                            69il: 678
                            69oh: 679
                            69ol: 680
                            68ih: 685
                            68il: 686
                            68oh: 687
                            68ol: 688
                            67ih: 693
                            67il: 694
                            67oh: 695
                            67ol: 696
                            66ih: 701
                            66il: 702
                            66oh: 703
                            66ol: 704
                            65ih: 709
                            65il: 710
                            65oh: 711
                            65ol: 712
                            64ih: 717
                            64il: 718
                            64oh: 719
                            64ol: 720
                            63ih: 725
                            63il: 726
                            63oh: 727
                            63ol: 728
                            62ih: 733
                            62il: 734
                            62oh: 735
                            62ol: 736
                            61ih: 741
                            61il: 742
                            61oh: 743
                            61ol: 744
                            60ih: 749
                            60il: 750
                            60oh: 751
                            60ol: 752
                            59ih: 757
                            59il: 758
                            59oh: 759
                            59ol: 760
                            58ih: 765
                            58il: 766
                            58oh: 767
                            58ol: 768
                            57ih: 773
                            57il: 774
                            57oh: 775
                            57ol: 776
                            56ih: 781
                            56il: 782
                            56oh: 783
                            56ol: 784
                            55ih: 789
                            55il: 790
                            55oh: 791
                            55ol: 792
                            54ih: 797
                            54il: 798
                            54oh: 799
                            54ol: 800
                            53ih: 805
                            53il: 806
                            53oh: 807
                            53ol: 808
                            52ih: 813
                            52il: 814
                            52oh: 815
                            52ol: 816
                            51ih: 821
                            51il: 822
                            51oh: 823
                            51ol: 824
                            50ih: 829
                            50il: 830
                            50oh: 831
                            50ol: 832
                            49ih: 837
                            49il: 838
                            49oh: 839
                            49ol: 840
                            48ih: 845
                            48il: 846
                            48oh: 847
                            48ol: 848
                            47ih: 853
                            47il: 854
                            47oh: 855
                            47ol: 856
                            46ih: 861
                            46il: 862
                            46oh: 863
                            46ol: 864
                            45ih: 869
                            45il: 870
                            45oh: 871
                            45ol: 872
                            44ih: 877
                            44il: 878
                            44oh: 879
                            44ol: 880
                            43ih: 885
                            43il: 886
                            43oh: 887
                            43ol: 888
                            42ih: 893
                            42il: 894
                            42oh: 895
                            42ol: 896
                            41ih: 901
                            41il: 902
                            41oh: 903
                            41ol: 904
                            40ih: 909
                            40il: 910
                            40oh: 911
                            40ol: 912
                            39ih: 917
                            39il: 918
                            39oh: 919
                            39ol: 920
                            38ih: 925
                            38il: 926
                            38oh: 927
                            38ol: 928
                            37ih: 933
                            37il: 934
                            37oh: 935
                            37ol: 936
                            36ih: 941
                            36il: 942
                            36oh: 943
                            36ol: 944
                          lines:
                            70i: 347
                            70o: 349
                            70l: 348
                            70h: 350
                            69i: 351
                            69o: 353
                            69l: 352
                            69h: 354
                            68i: 355
                            68o: 357
                            68l: 356
                            68h: 358
                            67i: 359
                            67o: 361
                            67l: 360
                            67h: 362
                            66i: 363
                            66o: 365
                            66l: 364
                            66h: 366
                            65i: 367
                            65o: 369
                            65l: 368
                            65h: 370
                            64i: 371
                            64o: 373
                            64l: 372
                            64h: 374
                            63i: 375
                            63o: 377
                            63l: 376
                            63h: 378
                            62i: 379
                            62o: 381
                            62l: 380
                            62h: 382
                            61i: 383
                            61o: 385
                            61l: 384
                            61h: 386
                            60i: 387
                            60o: 389
                            60l: 388
                            60h: 390
                            59i: 391
                            59o: 393
                            59l: 392
                            59h: 394
                            58i: 395
                            58o: 397
                            58l: 396
                            58h: 398
                            57i: 399
                            57o: 401
                            57l: 400
                            57h: 402
                            56i: 403
                            56o: 405
                            56l: 404
                            56h: 406
                            55i: 407
                            55o: 409
                            55l: 408
                            55h: 410
                            54i: 411
                            54o: 413
                            54l: 412
                            54h: 414
                            53i: 415
                            53o: 417
                            53l: 416
                            53h: 418
                            52i: 419
                            52o: 421
                            52l: 420
                            52h: 422
                            51i: 423
                            51o: 425
                            51l: 424
                            51h: 426
                            50i: 427
                            50o: 429
                            50l: 428
                            50h: 430
                            49i: 431
                            49o: 433
                            49l: 432
                            49h: 434
                            48i: 435
                            48o: 437
                            48l: 436
                            48h: 438
                            47i: 439
                            47o: 441
                            47l: 440
                            47h: 442
                            46i: 443
                            46o: 445
                            46l: 444
                            46h: 446
                            45i: 447
                            45o: 449
                            45l: 448
                            45h: 450
                            44i: 451
                            44o: 453
                            44l: 452
                            44h: 454
                            43i: 455
                            43o: 457
                            43l: 456
                            43h: 458
                            42i: 459
                            42o: 461
                            42l: 460
                            42h: 462
                            41i: 463
                            41o: 465
                            41l: 464
                            41h: 466
                            40i: 467
                            40o: 469
                            40l: 468
                            40h: 470
                            39i: 471
                            39o: 473
                            39l: 472
                            39h: 474
                            38i: 475
                            38o: 477
                            38l: 476
                            38h: 478
                            37i: 479
                            37o: 481
                            37l: 480
                            37h: 482
                            36i: 483
                            36o: 485
                            36l: 484
                            36h: 486
                          areas:
                            '70':
                              loop: 87
                              surface: 79
                            '69':
                              loop: 88
                              surface: 80
                            '68':
                              loop: 89
                              surface: 81
                            '67':
                              loop: 90
                              surface: 82
                            '66':
                              loop: 91
                              surface: 83
                            '65':
                              loop: 92
                              surface: 84
                            '64':
                              loop: 93
                              surface: 85
                            '63':
                              loop: 94
                              surface: 86
                            '62':
                              loop: 95
                              surface: 87
                            '61':
                              loop: 96
                              surface: 88
                            '60':
                              loop: 97
                              surface: 89
                            '59':
                              loop: 98
                              surface: 90
                            '58':
                              loop: 99
                              surface: 91
                            '57':
                              loop: 100
                              surface: 92
                            '56':
                              loop: 101
                              surface: 93
                            '55':
                              loop: 102
                              surface: 94
                            '54':
                              loop: 103
                              surface: 95
                            '53':
                              loop: 104
                              surface: 96
                            '52':
                              loop: 105
                              surface: 97
                            '51':
                              loop: 106
                              surface: 98
                            '50':
                              loop: 107
                              surface: 99
                            '49':
                              loop: 108
                              surface: 100
                            '48':
                              loop: 109
                              surface: 101
                            '47':
                              loop: 110
                              surface: 102
                            '46':
                              loop: 111
                              surface: 103
                            '45':
                              loop: 112
                              surface: 104
                            '44':
                              loop: 113
                              surface: 105
                            '43':
                              loop: 114
                              surface: 106
                            '42':
                              loop: 115
                              surface: 107
                            '41':
                              loop: 116
                              surface: 108
                            '40':
                              loop: 117
                              surface: 109
                            '39':
                              loop: 118
                              surface: 110
                            '38':
                              loop: 119
                              surface: 111
                            '37':
                              loop: 120
                              surface: 112
                            '36':
                              loop: 121
                              surface: 113
                        insulation:
                          points:
                            70ih: 673
                            70il: 674
                            70oh: 675
                            70ol: 676
                            69ih: 681
                            69il: 682
                            69oh: 683
                            69ol: 684
                            68ih: 689
                            68il: 690
                            68oh: 691
                            68ol: 692
                            67ih: 697
                            67il: 698
                            67oh: 699
                            67ol: 700
                            66ih: 705
                            66il: 706
                            66oh: 707
                            66ol: 708
                            65ih: 713
                            65il: 714
                            65oh: 715
                            65ol: 716
                            64ih: 721
                            64il: 722
                            64oh: 723
                            64ol: 724
                            63ih: 729
                            63il: 730
                            63oh: 731
                            63ol: 732
                            62ih: 737
                            62il: 738
                            62oh: 739
                            62ol: 740
                            61ih: 745
                            61il: 746
                            61oh: 747
                            61ol: 748
                            60ih: 753
                            60il: 754
                            60oh: 755
                            60ol: 756
                            59ih: 761
                            59il: 762
                            59oh: 763
                            59ol: 764
                            58ih: 769
                            58il: 770
                            58oh: 771
                            58ol: 772
                            57ih: 777
                            57il: 778
                            57oh: 779
                            57ol: 780
                            56ih: 785
                            56il: 786
                            56oh: 787
                            56ol: 788
                            55ih: 793
                            55il: 794
                            55oh: 795
                            55ol: 796
                            54ih: 801
                            54il: 802
                            54oh: 803
                            54ol: 804
                            53ih: 809
                            53il: 810
                            53oh: 811
                            53ol: 812
                            52ih: 817
                            52il: 818
                            52oh: 819
                            52ol: 820
                            51ih: 825
                            51il: 826
                            51oh: 827
                            51ol: 828
                            50ih: 833
                            50il: 834
                            50oh: 835
                            50ol: 836
                            49ih: 841
                            49il: 842
                            49oh: 843
                            49ol: 844
                            48ih: 849
                            48il: 850
                            48oh: 851
                            48ol: 852
                            47ih: 857
                            47il: 858
                            47oh: 859
                            47ol: 860
                            46ih: 865
                            46il: 866
                            46oh: 867
                            46ol: 868
                            45ih: 873
                            45il: 874
                            45oh: 875
                            45ol: 876
                            44ih: 881
                            44il: 882
                            44oh: 883
                            44ol: 884
                            43ih: 889
                            43il: 890
                            43oh: 891
                            43ol: 892
                            42ih: 897
                            42il: 898
                            42oh: 899
                            42ol: 900
                            41ih: 905
                            41il: 906
                            41oh: 907
                            41ol: 908
                            40ih: 913
                            40il: 914
                            40oh: 915
                            40ol: 916
                            39ih: 921
                            39il: 922
                            39oh: 923
                            39ol: 924
                            38ih: 929
                            38il: 930
                            38oh: 931
                            38ol: 932
                            37ih: 937
                            37il: 938
                            37oh: 939
                            37ol: 940
                            36ih: 945
                            36il: 946
                            36oh: 947
                            36ol: 948
                          lines: {}
                          areas:
                            '2':
                              loop: null
                              surface: null
                        current_sign: -1
                      4:
                        half_turns:
                          points:
                            106ih: 949
                            106il: 950
                            106oh: 951
                            106ol: 952
                            107ih: 957
                            107il: 958
                            107oh: 959
                            107ol: 960
                            108ih: 965
                            108il: 966
                            108oh: 967
                            108ol: 968
                            109ih: 973
                            109il: 974
                            109oh: 975
                            109ol: 976
                            110ih: 981
                            110il: 982
                            110oh: 983
                            110ol: 984
                            111ih: 989
                            111il: 990
                            111oh: 991
                            111ol: 992
                            112ih: 997
                            112il: 998
                            112oh: 999
                            112ol: 1000
                            113ih: 1005
                            113il: 1006
                            113oh: 1007
                            113ol: 1008
                            114ih: 1013
                            114il: 1014
                            114oh: 1015
                            114ol: 1016
                            115ih: 1021
                            115il: 1022
                            115oh: 1023
                            115ol: 1024
                            116ih: 1029
                            116il: 1030
                            116oh: 1031
                            116ol: 1032
                            117ih: 1037
                            117il: 1038
                            117oh: 1039
                            117ol: 1040
                            118ih: 1045
                            118il: 1046
                            118oh: 1047
                            118ol: 1048
                            119ih: 1053
                            119il: 1054
                            119oh: 1055
                            119ol: 1056
                            120ih: 1061
                            120il: 1062
                            120oh: 1063
                            120ol: 1064
                            121ih: 1069
                            121il: 1070
                            121oh: 1071
                            121ol: 1072
                            122ih: 1077
                            122il: 1078
                            122oh: 1079
                            122ol: 1080
                            123ih: 1085
                            123il: 1086
                            123oh: 1087
                            123ol: 1088
                            124ih: 1093
                            124il: 1094
                            124oh: 1095
                            124ol: 1096
                            125ih: 1101
                            125il: 1102
                            125oh: 1103
                            125ol: 1104
                            126ih: 1109
                            126il: 1110
                            126oh: 1111
                            126ol: 1112
                            127ih: 1117
                            127il: 1118
                            127oh: 1119
                            127ol: 1120
                            128ih: 1125
                            128il: 1126
                            128oh: 1127
                            128ol: 1128
                            129ih: 1133
                            129il: 1134
                            129oh: 1135
                            129ol: 1136
                            130ih: 1141
                            130il: 1142
                            130oh: 1143
                            130ol: 1144
                            131ih: 1149
                            131il: 1150
                            131oh: 1151
                            131ol: 1152
                            132ih: 1157
                            132il: 1158
                            132oh: 1159
                            132ol: 1160
                            133ih: 1165
                            133il: 1166
                            133oh: 1167
                            133ol: 1168
                            134ih: 1173
                            134il: 1174
                            134oh: 1175
                            134ol: 1176
                            135ih: 1181
                            135il: 1182
                            135oh: 1183
                            135ol: 1184
                            136ih: 1189
                            136il: 1190
                            136oh: 1191
                            136ol: 1192
                            137ih: 1197
                            137il: 1198
                            137oh: 1199
                            137ol: 1200
                            138ih: 1205
                            138il: 1206
                            138oh: 1207
                            138ol: 1208
                            139ih: 1213
                            139il: 1214
                            139oh: 1215
                            139ol: 1216
                            140ih: 1221
                            140il: 1222
                            140oh: 1223
                            140ol: 1224
                          lines:
                            106i: 487
                            106o: 489
                            106l: 488
                            106h: 490
                            107i: 491
                            107o: 493
                            107l: 492
                            107h: 494
                            108i: 495
                            108o: 497
                            108l: 496
                            108h: 498
                            109i: 499
                            109o: 501
                            109l: 500
                            109h: 502
                            110i: 503
                            110o: 505
                            110l: 504
                            110h: 506
                            111i: 507
                            111o: 509
                            111l: 508
                            111h: 510
                            112i: 511
                            112o: 513
                            112l: 512
                            112h: 514
                            113i: 515
                            113o: 517
                            113l: 516
                            113h: 518
                            114i: 519
                            114o: 521
                            114l: 520
                            114h: 522
                            115i: 523
                            115o: 525
                            115l: 524
                            115h: 526
                            116i: 527
                            116o: 529
                            116l: 528
                            116h: 530
                            117i: 531
                            117o: 533
                            117l: 532
                            117h: 534
                            118i: 535
                            118o: 537
                            118l: 536
                            118h: 538
                            119i: 539
                            119o: 541
                            119l: 540
                            119h: 542
                            120i: 543
                            120o: 545
                            120l: 544
                            120h: 546
                            121i: 547
                            121o: 549
                            121l: 548
                            121h: 550
                            122i: 551
                            122o: 553
                            122l: 552
                            122h: 554
                            123i: 555
                            123o: 557
                            123l: 556
                            123h: 558
                            124i: 559
                            124o: 561
                            124l: 560
                            124h: 562
                            125i: 563
                            125o: 565
                            125l: 564
                            125h: 566
                            126i: 567
                            126o: 569
                            126l: 568
                            126h: 570
                            127i: 571
                            127o: 573
                            127l: 572
                            127h: 574
                            128i: 575
                            128o: 577
                            128l: 576
                            128h: 578
                            129i: 579
                            129o: 581
                            129l: 580
                            129h: 582
                            130i: 583
                            130o: 585
                            130l: 584
                            130h: 586
                            131i: 587
                            131o: 589
                            131l: 588
                            131h: 590
                            132i: 591
                            132o: 593
                            132l: 592
                            132h: 594
                            133i: 595
                            133o: 597
                            133l: 596
                            133h: 598
                            134i: 599
                            134o: 601
                            134l: 600
                            134h: 602
                            135i: 603
                            135o: 605
                            135l: 604
                            135h: 606
                            136i: 607
                            136o: 609
                            136l: 608
                            136h: 610
                            137i: 611
                            137o: 613
                            137l: 612
                            137h: 614
                            138i: 615
                            138o: 617
                            138l: 616
                            138h: 618
                            139i: 619
                            139o: 621
                            139l: 620
                            139h: 622
                            140i: 623
                            140o: 625
                            140l: 624
                            140h: 626
                          areas:
                            '106':
                              loop: 122
                              surface: 114
                            '107':
                              loop: 123
                              surface: 115
                            '108':
                              loop: 124
                              surface: 116
                            '109':
                              loop: 125
                              surface: 117
                            '110':
                              loop: 126
                              surface: 118
                            '111':
                              loop: 127
                              surface: 119
                            '112':
                              loop: 128
                              surface: 120
                            '113':
                              loop: 129
                              surface: 121
                            '114':
                              loop: 130
                              surface: 122
                            '115':
                              loop: 131
                              surface: 123
                            '116':
                              loop: 132
                              surface: 124
                            '117':
                              loop: 133
                              surface: 125
                            '118':
                              loop: 134
                              surface: 126
                            '119':
                              loop: 135
                              surface: 127
                            '120':
                              loop: 136
                              surface: 128
                            '121':
                              loop: 137
                              surface: 129
                            '122':
                              loop: 138
                              surface: 130
                            '123':
                              loop: 139
                              surface: 131
                            '124':
                              loop: 140
                              surface: 132
                            '125':
                              loop: 141
                              surface: 133
                            '126':
                              loop: 142
                              surface: 134
                            '127':
                              loop: 143
                              surface: 135
                            '128':
                              loop: 144
                              surface: 136
                            '129':
                              loop: 145
                              surface: 137
                            '130':
                              loop: 146
                              surface: 138
                            '131':
                              loop: 147
                              surface: 139
                            '132':
                              loop: 148
                              surface: 140
                            '133':
                              loop: 149
                              surface: 141
                            '134':
                              loop: 150
                              surface: 142
                            '135':
                              loop: 151
                              surface: 143
                            '136':
                              loop: 152
                              surface: 144
                            '137':
                              loop: 153
                              surface: 145
                            '138':
                              loop: 154
                              surface: 146
                            '139':
                              loop: 155
                              surface: 147
                            '140':
                              loop: 156
                              surface: 148
                        insulation:
                          points:
                            106ih: 953
                            106il: 954
                            106oh: 955
                            106ol: 956
                            107ih: 961
                            107il: 962
                            107oh: 963
                            107ol: 964
                            108ih: 969
                            108il: 970
                            108oh: 971
                            108ol: 972
                            109ih: 977
                            109il: 978
                            109oh: 979
                            109ol: 980
                            110ih: 985
                            110il: 986
                            110oh: 987
                            110ol: 988
                            111ih: 993
                            111il: 994
                            111oh: 995
                            111ol: 996
                            112ih: 1001
                            112il: 1002
                            112oh: 1003
                            112ol: 1004
                            113ih: 1009
                            113il: 1010
                            113oh: 1011
                            113ol: 1012
                            114ih: 1017
                            114il: 1018
                            114oh: 1019
                            114ol: 1020
                            115ih: 1025
                            115il: 1026
                            115oh: 1027
                            115ol: 1028
                            116ih: 1033
                            116il: 1034
                            116oh: 1035
                            116ol: 1036
                            117ih: 1041
                            117il: 1042
                            117oh: 1043
                            117ol: 1044
                            118ih: 1049
                            118il: 1050
                            118oh: 1051
                            118ol: 1052
                            119ih: 1057
                            119il: 1058
                            119oh: 1059
                            119ol: 1060
                            120ih: 1065
                            120il: 1066
                            120oh: 1067
                            120ol: 1068
                            121ih: 1073
                            121il: 1074
                            121oh: 1075
                            121ol: 1076
                            122ih: 1081
                            122il: 1082
                            122oh: 1083
                            122ol: 1084
                            123ih: 1089
                            123il: 1090
                            123oh: 1091
                            123ol: 1092
                            124ih: 1097
                            124il: 1098
                            124oh: 1099
                            124ol: 1100
                            125ih: 1105
                            125il: 1106
                            125oh: 1107
                            125ol: 1108
                            126ih: 1113
                            126il: 1114
                            126oh: 1115
                            126ol: 1116
                            127ih: 1121
                            127il: 1122
                            127oh: 1123
                            127ol: 1124
                            128ih: 1129
                            128il: 1130
                            128oh: 1131
                            128ol: 1132
                            129ih: 1137
                            129il: 1138
                            129oh: 1139
                            129ol: 1140
                            130ih: 1145
                            130il: 1146
                            130oh: 1147
                            130ol: 1148
                            131ih: 1153
                            131il: 1154
                            131oh: 1155
                            131ol: 1156
                            132ih: 1161
                            132il: 1162
                            132oh: 1163
                            132ol: 1164
                            133ih: 1169
                            133il: 1170
                            133oh: 1171
                            133ol: 1172
                            134ih: 1177
                            134il: 1178
                            134oh: 1179
                            134ol: 1180
                            135ih: 1185
                            135il: 1186
                            135oh: 1187
                            135ol: 1188
                            136ih: 1193
                            136il: 1194
                            136oh: 1195
                            136ol: 1196
                            137ih: 1201
                            137il: 1202
                            137oh: 1203
                            137ol: 1204
                            138ih: 1209
                            138il: 1210
                            138oh: 1211
                            138ol: 1212
                            139ih: 1217
                            139il: 1218
                            139oh: 1219
                            139ol: 1220
                            140ih: 1225
                            140il: 1226
                            140oh: 1227
                            140ol: 1228
                          lines: {}
                          areas:
                            '4':
                              loop: null
                              surface: null
                        current_sign: 1
                    conductor_name: SMC11T150
                    conductors_number: 35
        type: reversed-block-coil
        bore_center:
          x: 0.0
          y: 0.0
    physical_order: [{coil: 1, pole: 1, layer: 1, winding: 1, block: 1}, {coil: 1,
        pole: 2, layer: 1, winding: 2, block: 2}, {coil: 1, pole: 1, layer: 1, winding: 1,
        block: 3}, {coil: 1, pole: 2, layer: 1, winding: 2, block: 4}]
    anticlockwise_order:
      coils:
        1:
          layers:
            1: [{pole: 1, winding: 1, block: 1}, {pole: 1, winding: 1, block: 3},
              {pole: 2, winding: 2, block: 2}, {pole: 2, winding: 2, block: 4}]
    concentric_coils:
      ? - 0.0
        - 0.0
      : [1]
    max_radius: 0.0
  iron:
    quadrants:
      1:
        points:
          kp_1: 1
          kp_2: 5
          kp_3: 9
          kp_4: 11
          kp_5: 13
          kp_6: 17
          kp_7: 21
          kp_8: 25
          kp_11: 29
          kp_12: 33
          kp_21: 37
          kp_22: 41
          kp_101: 45
          kp_102: 47
          kp_103: 51
          kp_104: 55
          kp_105: 59
          kp_106: 61
          kp_107: 63
          kp_108: 65
          kp_2_3P3: 69
          kp_6_5P3: 73
          kp_106_108P3: 77
          kp_108_107P3: 81
          kpln_2_center: 85
          kpln_5_center: 89
          kpln_11: 27
          kpln_21: 28
          kpln_106_center: 101
          kpln_107_center: 105
        lines:
          ln_1: 1
          ln_2: 5
          ln_3: 9
          ln_4: 11
          ln_5: 15
          ln_6: 19
          ln_7: 23
          ln_8: 27
          ln_11: 31
          ln_21: 35
          ln_101: 39
          ln_102: 43
          ln_103: 47
          ln_104: 51
          ln_105: 55
          ln_106: 57
          ln_107: 61
          ln_108: 65
        areas:
          ar_1:
            loop: 1
            surface: 1
          ar_hole_1:
            loop: 2
            surface: null
          ar_hole_2:
            loop: 3
            surface: null
          ar_101:
            loop: 4
            surface: 2
      2:
        points:
          kp_1: 2
          kp_2: 6
          kp_3: 10
          kp_4: 12
          kp_5: 14
          kp_6: 18
          kp_7: 22
          kp_8: 26
          kp_11: 30
          kp_12: 34
          kp_21: 38
          kp_22: 42
          kp_101: 45
          kp_102: 48
          kp_103: 52
          kp_104: 56
          kp_105: 59
          kp_106: 61
          kp_107: 63
          kp_108: 66
          kp_2_3P3: 70
          kp_6_5P3: 74
          kp_106_108P3: 78
          kp_108_107P3: 82
          kpln_2_center: 86
          kpln_5_center: 90
          kpln_11: 27
          kpln_21: 28
          kpln_106_center: 102
          kpln_107_center: 106
        lines:
          ln_1: 2
          ln_2: 6
          ln_3: 10
          ln_4: 12
          ln_5: 16
          ln_6: 20
          ln_7: 24
          ln_8: 28
          ln_11: 32
          ln_21: 36
          ln_101: 40
          ln_102: 44
          ln_103: 48
          ln_104: 52
          ln_105: 55
          ln_106: 58
          ln_107: 62
          ln_108: 65
        areas:
          ar_1:
            loop: 5
            surface: 3
          ar_hole_1:
            loop: 6
            surface: null
          ar_hole_2:
            loop: 7
            surface: null
          ar_101:
            loop: 8
            surface: 4
      4:
        points:
          kp_1: 3
          kp_2: 7
          kp_3: 9
          kp_4: 11
          kp_5: 15
          kp_6: 19
          kp_7: 23
          kp_8: 27
          kp_11: 31
          kp_12: 35
          kp_21: 39
          kp_22: 43
          kp_101: 46
          kp_102: 49
          kp_103: 53
          kp_104: 57
          kp_105: 60
          kp_106: 62
          kp_107: 64
          kp_108: 67
          kp_2_3P3: 71
          kp_6_5P3: 75
          kp_106_108P3: 79
          kp_108_107P3: 83
          kpln_2_center: 87
          kpln_5_center: 91
          kpln_11: 27
          kpln_21: 28
          kpln_106_center: 103
          kpln_107_center: 107
        lines:
          ln_1: 3
          ln_2: 7
          ln_3: 9
          ln_4: 13
          ln_5: 17
          ln_6: 21
          ln_7: 25
          ln_8: 29
          ln_11: 33
          ln_21: 37
          ln_101: 41
          ln_102: 45
          ln_103: 49
          ln_104: 53
          ln_105: 56
          ln_106: 59
          ln_107: 63
          ln_108: 66
        areas:
          ar_1:
            loop: 9
            surface: 5
          ar_hole_1:
            loop: 10
            surface: null
          ar_hole_2:
            loop: 11
            surface: null
          ar_101:
            loop: 12
            surface: 6
      3:
        points:
          kp_1: 4
          kp_2: 8
          kp_3: 10
          kp_4: 12
          kp_5: 16
          kp_6: 20
          kp_7: 24
          kp_8: 28
          kp_11: 32
          kp_12: 36
          kp_21: 40
          kp_22: 44
          kp_101: 46
          kp_102: 50
          kp_103: 54
          kp_104: 58
          kp_105: 60
          kp_106: 62
          kp_107: 64
          kp_108: 68
          kp_2_3P3: 72
          kp_6_5P3: 76
          kp_106_108P3: 80
          kp_108_107P3: 84
          kpln_2_center: 88
          kpln_5_center: 92
          kpln_11: 27
          kpln_21: 28
          kpln_106_center: 104
          kpln_107_center: 108
        lines:
          ln_1: 4
          ln_2: 8
          ln_3: 10
          ln_4: 14
          ln_5: 18
          ln_6: 22
          ln_7: 26
          ln_8: 30
          ln_11: 34
          ln_21: 38
          ln_101: 42
          ln_102: 46
          ln_103: 50
          ln_104: 54
          ln_105: 56
          ln_106: 60
          ln_107: 64
          ln_108: 66
        areas:
          ar_1:
            loop: 13
            surface: 7
          ar_hole_1:
            loop: 14
            surface: null
          ar_hole_2:
            loop: 15
            surface: null
          ar_101:
            loop: 16
            surface: 8
    max_radius: 0.25
  wedges:
    coils: {}
  air:
    points:
      bore_center1: 1231
    lines: {}
    areas: {}
  air_inf:
    points: {}
    lines:
      inner: 628
      outer: 627
    areas:
      inner:
        loop: 157
        surface: 150
      outer:
        loop: 158
        surface: 149
  symmetric_boundaries:
    points: {}
    lines: {}
    areas: {}
  thin_shells:
    mid_layers_ht_to_ht: {}
    mid_layers_wdg_to_ht: {}
    mid_layers_ht_to_wdg: {}
    mid_layers_wdg_to_wdg: {}
    mid_poles: {}
    mid_windings: {}
    mid_turn_blocks: {}
    mid_wedge_turn: {}
    mid_layers_aux: {}
    ins_thickness:
      mid_pole: {}
      mid_layer: {}
      mid_winding: {}
  insulation:
    coils: {}
domains:
  groups_entities:
    iron:
      BHiron1: [1, 2, 3, 4, 5, 6, 7, 8]
    air: [150, 151, 152, 153, 154, 155, 156, 157, 158, 159, 160]
    symmetric_boundaries:
      x: []
      y: []
  physical_groups:
    blocks: {}
    wedges: {}
    insulations:
      curves: {}
      surfaces: {}
    iron:
      curves: {}
      surfaces: {}
    air_inf: null
    air_inf_bnd: null
    air: null
    symmetric_boundaries:
      normal_free: null
      tangential_free: null
    half_turns_points: null
