geometries:
  coil:
    coils:
      1:
        poles:
          1:
            layers:
              1:
                windings:
                  1:
                    blocks:
                      1:
                        half_turns:
                          points:
                            35ih: 5
                            35il: 6
                            35oh: 7
                            35ol: 8
                            34ih: 10
                            34il: 11
                            34oh: 12
                            34ol: 13
                            33ih: 16
                            33il: 17
                            33oh: 18
                            33ol: 19
                            32ih: 22
                            32il: 23
                            32oh: 24
                            32ol: 25
                            31ih: 28
                            31il: 29
                            31oh: 30
                            31ol: 31
                            30ih: 34
                            30il: 35
                            30oh: 36
                            30ol: 37
                            29ih: 40
                            29il: 41
                            29oh: 42
                            29ol: 43
                            28ih: 46
                            28il: 47
                            28oh: 48
                            28ol: 49
                            27ih: 52
                            27il: 53
                            27oh: 54
                            27ol: 55
                            26ih: 58
                            26il: 59
                            26oh: 60
                            26ol: 61
                            25ih: 64
                            25il: 65
                            25oh: 66
                            25ol: 67
                            24ih: 70
                            24il: 71
                            24oh: 72
                            24ol: 73
                            23ih: 76
                            23il: 77
                            23oh: 78
                            23ol: 79
                            22ih: 82
                            22il: 83
                            22oh: 84
                            22ol: 85
                            21ih: 88
                            21il: 89
                            21oh: 90
                            21ol: 91
                            20ih: 94
                            20il: 95
                            20oh: 96
                            20ol: 97
                            19ih: 100
                            19il: 101
                            19oh: 102
                            19ol: 103
                            18ih: 106
                            18il: 107
                            18oh: 108
                            18ol: 109
                            17ih: 112
                            17il: 113
                            17oh: 114
                            17ol: 115
                            16ih: 118
                            16il: 119
                            16oh: 120
                            16ol: 121
                            15ih: 124
                            15il: 125
                            15oh: 126
                            15ol: 127
                            14ih: 130
                            14il: 131
                            14oh: 132
                            14ol: 133
                            13ih: 136
                            13il: 137
                            13oh: 138
                            13ol: 139
                            12ih: 142
                            12il: 143
                            12oh: 144
                            12ol: 145
                            11ih: 148
                            11il: 149
                            11oh: 150
                            11ol: 151
                            10ih: 154
                            10il: 155
                            10oh: 156
                            10ol: 157
                            9ih: 160
                            9il: 161
                            9oh: 162
                            9ol: 163
                            8ih: 166
                            8il: 167
                            8oh: 168
                            8ol: 169
                            7ih: 172
                            7il: 173
                            7oh: 174
                            7ol: 175
                            6ih: 178
                            6il: 179
                            6oh: 180
                            6ol: 181
                            5ih: 184
                            5il: 185
                            5oh: 186
                            5ol: 187
                            4ih: 190
                            4il: 191
                            4oh: 192
                            4ol: 193
                            3ih: 196
                            3il: 197
                            3oh: 198
                            3ol: 199
                            2ih: 202
                            2il: 203
                            2oh: 204
                            2ol: 205
                            1ih: 208
                            1il: 209
                            1oh: 210
                            1ol: 211
                          lines:
                            35i: 1
                            35o: 3
                            35l: 2
                            35h: 4
                            34i: 5
                            34o: 7
                            34l: 6
                            34h: 8
                            33i: 9
                            33o: 11
                            33l: 10
                            33h: 12
                            32i: 13
                            32o: 15
                            32l: 14
                            32h: 16
                            31i: 17
                            31o: 19
                            31l: 18
                            31h: 20
                            30i: 21
                            30o: 23
                            30l: 22
                            30h: 24
                            29i: 25
                            29o: 27
                            29l: 26
                            29h: 28
                            28i: 29
                            28o: 31
                            28l: 30
                            28h: 32
                            27i: 33
                            27o: 35
                            27l: 34
                            27h: 36
                            26i: 37
                            26o: 39
                            26l: 38
                            26h: 40
                            25i: 41
                            25o: 43
                            25l: 42
                            25h: 44
                            24i: 45
                            24o: 47
                            24l: 46
                            24h: 48
                            23i: 49
                            23o: 51
                            23l: 50
                            23h: 52
                            22i: 53
                            22o: 55
                            22l: 54
                            22h: 56
                            21i: 57
                            21o: 59
                            21l: 58
                            21h: 60
                            20i: 61
                            20o: 63
                            20l: 62
                            20h: 64
                            19i: 65
                            19o: 67
                            19l: 66
                            19h: 68
                            18i: 69
                            18o: 71
                            18l: 70
                            18h: 72
                            17i: 73
                            17o: 75
                            17l: 74
                            17h: 76
                            16i: 77
                            16o: 79
                            16l: 78
                            16h: 80
                            15i: 81
                            15o: 83
                            15l: 82
                            15h: 84
                            14i: 85
                            14o: 87
                            14l: 86
                            14h: 88
                            13i: 89
                            13o: 91
                            13l: 90
                            13h: 92
                            12i: 93
                            12o: 95
                            12l: 94
                            12h: 96
                            11i: 97
                            11o: 99
                            11l: 98
                            11h: 100
                            10i: 101
                            10o: 103
                            10l: 102
                            10h: 104
                            9i: 105
                            9o: 107
                            9l: 106
                            9h: 108
                            8i: 109
                            8o: 111
                            8l: 110
                            8h: 112
                            7i: 113
                            7o: 115
                            7l: 114
                            7h: 116
                            6i: 117
                            6o: 119
                            6l: 118
                            6h: 120
                            5i: 121
                            5o: 123
                            5l: 122
                            5h: 124
                            4i: 125
                            4o: 127
                            4l: 126
                            4h: 128
                            3i: 129
                            3o: 131
                            3l: 130
                            3h: 132
                            2i: 133
                            2o: 135
                            2l: 134
                            2h: 136
                            1i: 137
                            1o: 139
                            1l: 138
                            1h: 140
                          areas:
                            '35':
                              loop: 1
                              surface: 1
                            '34':
                              loop: 2
                              surface: 2
                            '33':
                              loop: 3
                              surface: 3
                            '32':
                              loop: 4
                              surface: 4
                            '31':
                              loop: 5
                              surface: 5
                            '30':
                              loop: 6
                              surface: 6
                            '29':
                              loop: 7
                              surface: 7
                            '28':
                              loop: 8
                              surface: 8
                            '27':
                              loop: 9
                              surface: 9
                            '26':
                              loop: 10
                              surface: 10
                            '25':
                              loop: 11
                              surface: 11
                            '24':
                              loop: 12
                              surface: 12
                            '23':
                              loop: 13
                              surface: 13
                            '22':
                              loop: 14
                              surface: 14
                            '21':
                              loop: 15
                              surface: 15
                            '20':
                              loop: 16
                              surface: 16
                            '19':
                              loop: 17
                              surface: 17
                            '18':
                              loop: 18
                              surface: 18
                            '17':
                              loop: 19
                              surface: 19
                            '16':
                              loop: 20
                              surface: 20
                            '15':
                              loop: 21
                              surface: 21
                            '14':
                              loop: 22
                              surface: 22
                            '13':
                              loop: 23
                              surface: 23
                            '12':
                              loop: 24
                              surface: 24
                            '11':
                              loop: 25
                              surface: 25
                            '10':
                              loop: 26
                              surface: 26
                            '9':
                              loop: 27
                              surface: 27
                            '8':
                              loop: 28
                              surface: 28
                            '7':
                              loop: 29
                              surface: 29
                            '6':
                              loop: 30
                              surface: 30
                            '5':
                              loop: 31
                              surface: 31
                            '4':
                              loop: 32
                              surface: 32
                            '3':
                              loop: 33
                              surface: 33
                            '2':
                              loop: 34
                              surface: 34
                            '1':
                              loop: 35
                              surface: 35
                        insulation:
                          points: {}
                          lines: {}
                          areas: {}
                        current_sign: 1
                      3:
                        half_turns:
                          points:
                            71ih: 213
                            71il: 214
                            71oh: 215
                            71ol: 216
                            72ih: 218
                            72il: 219
                            72oh: 220
                            72ol: 221
                            73ih: 224
                            73il: 225
                            73oh: 226
                            73ol: 227
                            74ih: 230
                            74il: 231
                            74oh: 232
                            74ol: 233
                            75ih: 236
                            75il: 237
                            75oh: 238
                            75ol: 239
                            76ih: 242
                            76il: 243
                            76oh: 244
                            76ol: 245
                            77ih: 248
                            77il: 249
                            77oh: 250
                            77ol: 251
                            78ih: 254
                            78il: 255
                            78oh: 256
                            78ol: 257
                            79ih: 260
                            79il: 261
                            79oh: 262
                            79ol: 263
                            80ih: 266
                            80il: 267
                            80oh: 268
                            80ol: 269
                            81ih: 272
                            81il: 273
                            81oh: 274
                            81ol: 275
                            82ih: 278
                            82il: 279
                            82oh: 280
                            82ol: 281
                            83ih: 284
                            83il: 285
                            83oh: 286
                            83ol: 287
                            84ih: 290
                            84il: 291
                            84oh: 292
                            84ol: 293
                            85ih: 296
                            85il: 297
                            85oh: 298
                            85ol: 299
                            86ih: 302
                            86il: 303
                            86oh: 304
                            86ol: 305
                            87ih: 308
                            87il: 309
                            87oh: 310
                            87ol: 311
                            88ih: 314
                            88il: 315
                            88oh: 316
                            88ol: 317
                            89ih: 320
                            89il: 321
                            89oh: 322
                            89ol: 323
                            90ih: 326
                            90il: 327
                            90oh: 328
                            90ol: 329
                            91ih: 332
                            91il: 333
                            91oh: 334
                            91ol: 335
                            92ih: 338
                            92il: 339
                            92oh: 340
                            92ol: 341
                            93ih: 344
                            93il: 345
                            93oh: 346
                            93ol: 347
                            94ih: 350
                            94il: 351
                            94oh: 352
                            94ol: 353
                            95ih: 356
                            95il: 357
                            95oh: 358
                            95ol: 359
                            96ih: 362
                            96il: 363
                            96oh: 364
                            96ol: 365
                            97ih: 368
                            97il: 369
                            97oh: 370
                            97ol: 371
                            98ih: 374
                            98il: 375
                            98oh: 376
                            98ol: 377
                            99ih: 380
                            99il: 381
                            99oh: 382
                            99ol: 383
                            100ih: 386
                            100il: 387
                            100oh: 388
                            100ol: 389
                            101ih: 392
                            101il: 393
                            101oh: 394
                            101ol: 395
                            102ih: 398
                            102il: 399
                            102oh: 400
                            102ol: 401
                            103ih: 404
                            103il: 405
                            103oh: 406
                            103ol: 407
                            104ih: 410
                            104il: 411
                            104oh: 412
                            104ol: 413
                            105ih: 416
                            105il: 417
                            105oh: 418
                            105ol: 419
                          lines:
                            71i: 141
                            71o: 143
                            71l: 142
                            71h: 144
                            72i: 145
                            72o: 147
                            72l: 146
                            72h: 148
                            73i: 149
                            73o: 151
                            73l: 150
                            73h: 152
                            74i: 153
                            74o: 155
                            74l: 154
                            74h: 156
                            75i: 157
                            75o: 159
                            75l: 158
                            75h: 160
                            76i: 161
                            76o: 163
                            76l: 162
                            76h: 164
                            77i: 165
                            77o: 167
                            77l: 166
                            77h: 168
                            78i: 169
                            78o: 171
                            78l: 170
                            78h: 172
                            79i: 173
                            79o: 175
                            79l: 174
                            79h: 176
                            80i: 177
                            80o: 179
                            80l: 178
                            80h: 180
                            81i: 181
                            81o: 183
                            81l: 182
                            81h: 184
                            82i: 185
                            82o: 187
                            82l: 186
                            82h: 188
                            83i: 189
                            83o: 191
                            83l: 190
                            83h: 192
                            84i: 193
                            84o: 195
                            84l: 194
                            84h: 196
                            85i: 197
                            85o: 199
                            85l: 198
                            85h: 200
                            86i: 201
                            86o: 203
                            86l: 202
                            86h: 204
                            87i: 205
                            87o: 207
                            87l: 206
                            87h: 208
                            88i: 209
                            88o: 211
                            88l: 210
                            88h: 212
                            89i: 213
                            89o: 215
                            89l: 214
                            89h: 216
                            90i: 217
                            90o: 219
                            90l: 218
                            90h: 220
                            91i: 221
                            91o: 223
                            91l: 222
                            91h: 224
                            92i: 225
                            92o: 227
                            92l: 226
                            92h: 228
                            93i: 229
                            93o: 231
                            93l: 230
                            93h: 232
                            94i: 233
                            94o: 235
                            94l: 234
                            94h: 236
                            95i: 237
                            95o: 239
                            95l: 238
                            95h: 240
                            96i: 241
                            96o: 243
                            96l: 242
                            96h: 244
                            97i: 245
                            97o: 247
                            97l: 246
                            97h: 248
                            98i: 249
                            98o: 251
                            98l: 250
                            98h: 252
                            99i: 253
                            99o: 255
                            99l: 254
                            99h: 256
                            100i: 257
                            100o: 259
                            100l: 258
                            100h: 260
                            101i: 261
                            101o: 263
                            101l: 262
                            101h: 264
                            102i: 265
                            102o: 267
                            102l: 266
                            102h: 268
                            103i: 269
                            103o: 271
                            103l: 270
                            103h: 272
                            104i: 273
                            104o: 275
                            104l: 274
                            104h: 276
                            105i: 277
                            105o: 279
                            105l: 278
                            105h: 280
                          areas:
                            '71':
                              loop: 36
                              surface: 36
                            '72':
                              loop: 37
                              surface: 37
                            '73':
                              loop: 38
                              surface: 38
                            '74':
                              loop: 39
                              surface: 39
                            '75':
                              loop: 40
                              surface: 40
                            '76':
                              loop: 41
                              surface: 41
                            '77':
                              loop: 42
                              surface: 42
                            '78':
                              loop: 43
                              surface: 43
                            '79':
                              loop: 44
                              surface: 44
                            '80':
                              loop: 45
                              surface: 45
                            '81':
                              loop: 46
                              surface: 46
                            '82':
                              loop: 47
                              surface: 47
                            '83':
                              loop: 48
                              surface: 48
                            '84':
                              loop: 49
                              surface: 49
                            '85':
                              loop: 50
                              surface: 50
                            '86':
                              loop: 51
                              surface: 51
                            '87':
                              loop: 52
                              surface: 52
                            '88':
                              loop: 53
                              surface: 53
                            '89':
                              loop: 54
                              surface: 54
                            '90':
                              loop: 55
                              surface: 55
                            '91':
                              loop: 56
                              surface: 56
                            '92':
                              loop: 57
                              surface: 57
                            '93':
                              loop: 58
                              surface: 58
                            '94':
                              loop: 59
                              surface: 59
                            '95':
                              loop: 60
                              surface: 60
                            '96':
                              loop: 61
                              surface: 61
                            '97':
                              loop: 62
                              surface: 62
                            '98':
                              loop: 63
                              surface: 63
                            '99':
                              loop: 64
                              surface: 64
                            '100':
                              loop: 65
                              surface: 65
                            '101':
                              loop: 66
                              surface: 66
                            '102':
                              loop: 67
                              surface: 67
                            '103':
                              loop: 68
                              surface: 68
                            '104':
                              loop: 69
                              surface: 69
                            '105':
                              loop: 70
                              surface: 70
                        insulation:
                          points: {}
                          lines: {}
                          areas: {}
                        current_sign: -1
                    conductor_name: SMC11T150
                    conductors_number: 35
          2:
            layers:
              1:
                windings:
                  2:
                    blocks:
                      2:
                        half_turns:
                          points:
                            70ih: 421
                            70il: 422
                            70oh: 423
                            70ol: 424
                            69ih: 426
                            69il: 427
                            69oh: 428
                            69ol: 429
                            68ih: 432
                            68il: 433
                            68oh: 434
                            68ol: 435
                            67ih: 438
                            67il: 439
                            67oh: 440
                            67ol: 441
                            66ih: 444
                            66il: 445
                            66oh: 446
                            66ol: 447
                            65ih: 450
                            65il: 451
                            65oh: 452
                            65ol: 453
                            64ih: 456
                            64il: 457
                            64oh: 458
                            64ol: 459
                            63ih: 462
                            63il: 463
                            63oh: 464
                            63ol: 465
                            62ih: 468
                            62il: 469
                            62oh: 470
                            62ol: 471
                            61ih: 474
                            61il: 475
                            61oh: 476
                            61ol: 477
                            60ih: 480
                            60il: 481
                            60oh: 482
                            60ol: 483
                            59ih: 486
                            59il: 487
                            59oh: 488
                            59ol: 489
                            58ih: 492
                            58il: 493
                            58oh: 494
                            58ol: 495
                            57ih: 498
                            57il: 499
                            57oh: 500
                            57ol: 501
                            56ih: 504
                            56il: 505
                            56oh: 506
                            56ol: 507
                            55ih: 510
                            55il: 511
                            55oh: 512
                            55ol: 513
                            54ih: 516
                            54il: 517
                            54oh: 518
                            54ol: 519
                            53ih: 522
                            53il: 523
                            53oh: 524
                            53ol: 525
                            52ih: 528
                            52il: 529
                            52oh: 530
                            52ol: 531
                            51ih: 534
                            51il: 535
                            51oh: 536
                            51ol: 537
                            50ih: 540
                            50il: 541
                            50oh: 542
                            50ol: 543
                            49ih: 546
                            49il: 547
                            49oh: 548
                            49ol: 549
                            48ih: 552
                            48il: 553
                            48oh: 554
                            48ol: 555
                            47ih: 558
                            47il: 559
                            47oh: 560
                            47ol: 561
                            46ih: 564
                            46il: 565
                            46oh: 566
                            46ol: 567
                            45ih: 570
                            45il: 571
                            45oh: 572
                            45ol: 573
                            44ih: 576
                            44il: 577
                            44oh: 578
                            44ol: 579
                            43ih: 582
                            43il: 583
                            43oh: 584
                            43ol: 585
                            42ih: 588
                            42il: 589
                            42oh: 590
                            42ol: 591
                            41ih: 594
                            41il: 595
                            41oh: 596
                            41ol: 597
                            40ih: 600
                            40il: 601
                            40oh: 602
                            40ol: 603
                            39ih: 606
                            39il: 607
                            39oh: 608
                            39ol: 609
                            38ih: 612
                            38il: 613
                            38oh: 614
                            38ol: 615
                            37ih: 618
                            37il: 619
                            37oh: 620
                            37ol: 621
                            36ih: 624
                            36il: 625
                            36oh: 626
                            36ol: 627
                          lines:
                            70i: 281
                            70o: 283
                            70l: 282
                            70h: 284
                            69i: 285
                            69o: 287
                            69l: 286
                            69h: 288
                            68i: 289
                            68o: 291
                            68l: 290
                            68h: 292
                            67i: 293
                            67o: 295
                            67l: 294
                            67h: 296
                            66i: 297
                            66o: 299
                            66l: 298
                            66h: 300
                            65i: 301
                            65o: 303
                            65l: 302
                            65h: 304
                            64i: 305
                            64o: 307
                            64l: 306
                            64h: 308
                            63i: 309
                            63o: 311
                            63l: 310
                            63h: 312
                            62i: 313
                            62o: 315
                            62l: 314
                            62h: 316
                            61i: 317
                            61o: 319
                            61l: 318
                            61h: 320
                            60i: 321
                            60o: 323
                            60l: 322
                            60h: 324
                            59i: 325
                            59o: 327
                            59l: 326
                            59h: 328
                            58i: 329
                            58o: 331
                            58l: 330
                            58h: 332
                            57i: 333
                            57o: 335
                            57l: 334
                            57h: 336
                            56i: 337
                            56o: 339
                            56l: 338
                            56h: 340
                            55i: 341
                            55o: 343
                            55l: 342
                            55h: 344
                            54i: 345
                            54o: 347
                            54l: 346
                            54h: 348
                            53i: 349
                            53o: 351
                            53l: 350
                            53h: 352
                            52i: 353
                            52o: 355
                            52l: 354
                            52h: 356
                            51i: 357
                            51o: 359
                            51l: 358
                            51h: 360
                            50i: 361
                            50o: 363
                            50l: 362
                            50h: 364
                            49i: 365
                            49o: 367
                            49l: 366
                            49h: 368
                            48i: 369
                            48o: 371
                            48l: 370
                            48h: 372
                            47i: 373
                            47o: 375
                            47l: 374
                            47h: 376
                            46i: 377
                            46o: 379
                            46l: 378
                            46h: 380
                            45i: 381
                            45o: 383
                            45l: 382
                            45h: 384
                            44i: 385
                            44o: 387
                            44l: 386
                            44h: 388
                            43i: 389
                            43o: 391
                            43l: 390
                            43h: 392
                            42i: 393
                            42o: 395
                            42l: 394
                            42h: 396
                            41i: 397
                            41o: 399
                            41l: 398
                            41h: 400
                            40i: 401
                            40o: 403
                            40l: 402
                            40h: 404
                            39i: 405
                            39o: 407
                            39l: 406
                            39h: 408
                            38i: 409
                            38o: 411
                            38l: 410
                            38h: 412
                            37i: 413
                            37o: 415
                            37l: 414
                            37h: 416
                            36i: 417
                            36o: 419
                            36l: 418
                            36h: 420
                          areas:
                            '70':
                              loop: 71
                              surface: 71
                            '69':
                              loop: 72
                              surface: 72
                            '68':
                              loop: 73
                              surface: 73
                            '67':
                              loop: 74
                              surface: 74
                            '66':
                              loop: 75
                              surface: 75
                            '65':
                              loop: 76
                              surface: 76
                            '64':
                              loop: 77
                              surface: 77
                            '63':
                              loop: 78
                              surface: 78
                            '62':
                              loop: 79
                              surface: 79
                            '61':
                              loop: 80
                              surface: 80
                            '60':
                              loop: 81
                              surface: 81
                            '59':
                              loop: 82
                              surface: 82
                            '58':
                              loop: 83
                              surface: 83
                            '57':
                              loop: 84
                              surface: 84
                            '56':
                              loop: 85
                              surface: 85
                            '55':
                              loop: 86
                              surface: 86
                            '54':
                              loop: 87
                              surface: 87
                            '53':
                              loop: 88
                              surface: 88
                            '52':
                              loop: 89
                              surface: 89
                            '51':
                              loop: 90
                              surface: 90
                            '50':
                              loop: 91
                              surface: 91
                            '49':
                              loop: 92
                              surface: 92
                            '48':
                              loop: 93
                              surface: 93
                            '47':
                              loop: 94
                              surface: 94
                            '46':
                              loop: 95
                              surface: 95
                            '45':
                              loop: 96
                              surface: 96
                            '44':
                              loop: 97
                              surface: 97
                            '43':
                              loop: 98
                              surface: 98
                            '42':
                              loop: 99
                              surface: 99
                            '41':
                              loop: 100
                              surface: 100
                            '40':
                              loop: 101
                              surface: 101
                            '39':
                              loop: 102
                              surface: 102
                            '38':
                              loop: 103
                              surface: 103
                            '37':
                              loop: 104
                              surface: 104
                            '36':
                              loop: 105
                              surface: 105
                        insulation:
                          points: {}
                          lines: {}
                          areas: {}
                        current_sign: -1
                      4:
                        half_turns:
                          points:
                            106ih: 629
                            106il: 630
                            106oh: 631
                            106ol: 632
                            107ih: 634
                            107il: 635
                            107oh: 636
                            107ol: 637
                            108ih: 640
                            108il: 641
                            108oh: 642
                            108ol: 643
                            109ih: 646
                            109il: 647
                            109oh: 648
                            109ol: 649
                            110ih: 652
                            110il: 653
                            110oh: 654
                            110ol: 655
                            111ih: 658
                            111il: 659
                            111oh: 660
                            111ol: 661
                            112ih: 664
                            112il: 665
                            112oh: 666
                            112ol: 667
                            113ih: 670
                            113il: 671
                            113oh: 672
                            113ol: 673
                            114ih: 676
                            114il: 677
                            114oh: 678
                            114ol: 679
                            115ih: 682
                            115il: 683
                            115oh: 684
                            115ol: 685
                            116ih: 688
                            116il: 689
                            116oh: 690
                            116ol: 691
                            117ih: 694
                            117il: 695
                            117oh: 696
                            117ol: 697
                            118ih: 700
                            118il: 701
                            118oh: 702
                            118ol: 703
                            119ih: 706
                            119il: 707
                            119oh: 708
                            119ol: 709
                            120ih: 712
                            120il: 713
                            120oh: 714
                            120ol: 715
                            121ih: 718
                            121il: 719
                            121oh: 720
                            121ol: 721
                            122ih: 724
                            122il: 725
                            122oh: 726
                            122ol: 727
                            123ih: 730
                            123il: 731
                            123oh: 732
                            123ol: 733
                            124ih: 736
                            124il: 737
                            124oh: 738
                            124ol: 739
                            125ih: 742
                            125il: 743
                            125oh: 744
                            125ol: 745
                            126ih: 748
                            126il: 749
                            126oh: 750
                            126ol: 751
                            127ih: 754
                            127il: 755
                            127oh: 756
                            127ol: 757
                            128ih: 760
                            128il: 761
                            128oh: 762
                            128ol: 763
                            129ih: 766
                            129il: 767
                            129oh: 768
                            129ol: 769
                            130ih: 772
                            130il: 773
                            130oh: 774
                            130ol: 775
                            131ih: 778
                            131il: 779
                            131oh: 780
                            131ol: 781
                            132ih: 784
                            132il: 785
                            132oh: 786
                            132ol: 787
                            133ih: 790
                            133il: 791
                            133oh: 792
                            133ol: 793
                            134ih: 796
                            134il: 797
                            134oh: 798
                            134ol: 799
                            135ih: 802
                            135il: 803
                            135oh: 804
                            135ol: 805
                            136ih: 808
                            136il: 809
                            136oh: 810
                            136ol: 811
                            137ih: 814
                            137il: 815
                            137oh: 816
                            137ol: 817
                            138ih: 820
                            138il: 821
                            138oh: 822
                            138ol: 823
                            139ih: 826
                            139il: 827
                            139oh: 828
                            139ol: 829
                            140ih: 832
                            140il: 833
                            140oh: 834
                            140ol: 835
                          lines:
                            106i: 421
                            106o: 423
                            106l: 422
                            106h: 424
                            107i: 425
                            107o: 427
                            107l: 426
                            107h: 428
                            108i: 429
                            108o: 431
                            108l: 430
                            108h: 432
                            109i: 433
                            109o: 435
                            109l: 434
                            109h: 436
                            110i: 437
                            110o: 439
                            110l: 438
                            110h: 440
                            111i: 441
                            111o: 443
                            111l: 442
                            111h: 444
                            112i: 445
                            112o: 447
                            112l: 446
                            112h: 448
                            113i: 449
                            113o: 451
                            113l: 450
                            113h: 452
                            114i: 453
                            114o: 455
                            114l: 454
                            114h: 456
                            115i: 457
                            115o: 459
                            115l: 458
                            115h: 460
                            116i: 461
                            116o: 463
                            116l: 462
                            116h: 464
                            117i: 465
                            117o: 467
                            117l: 466
                            117h: 468
                            118i: 469
                            118o: 471
                            118l: 470
                            118h: 472
                            119i: 473
                            119o: 475
                            119l: 474
                            119h: 476
                            120i: 477
                            120o: 479
                            120l: 478
                            120h: 480
                            121i: 481
                            121o: 483
                            121l: 482
                            121h: 484
                            122i: 485
                            122o: 487
                            122l: 486
                            122h: 488
                            123i: 489
                            123o: 491
                            123l: 490
                            123h: 492
                            124i: 493
                            124o: 495
                            124l: 494
                            124h: 496
                            125i: 497
                            125o: 499
                            125l: 498
                            125h: 500
                            126i: 501
                            126o: 503
                            126l: 502
                            126h: 504
                            127i: 505
                            127o: 507
                            127l: 506
                            127h: 508
                            128i: 509
                            128o: 511
                            128l: 510
                            128h: 512
                            129i: 513
                            129o: 515
                            129l: 514
                            129h: 516
                            130i: 517
                            130o: 519
                            130l: 518
                            130h: 520
                            131i: 521
                            131o: 523
                            131l: 522
                            131h: 524
                            132i: 525
                            132o: 527
                            132l: 526
                            132h: 528
                            133i: 529
                            133o: 531
                            133l: 530
                            133h: 532
                            134i: 533
                            134o: 535
                            134l: 534
                            134h: 536
                            135i: 537
                            135o: 539
                            135l: 538
                            135h: 540
                            136i: 541
                            136o: 543
                            136l: 542
                            136h: 544
                            137i: 545
                            137o: 547
                            137l: 546
                            137h: 548
                            138i: 549
                            138o: 551
                            138l: 550
                            138h: 552
                            139i: 553
                            139o: 555
                            139l: 554
                            139h: 556
                            140i: 557
                            140o: 559
                            140l: 558
                            140h: 560
                          areas:
                            '106':
                              loop: 106
                              surface: 106
                            '107':
                              loop: 107
                              surface: 107
                            '108':
                              loop: 108
                              surface: 108
                            '109':
                              loop: 109
                              surface: 109
                            '110':
                              loop: 110
                              surface: 110
                            '111':
                              loop: 111
                              surface: 111
                            '112':
                              loop: 112
                              surface: 112
                            '113':
                              loop: 113
                              surface: 113
                            '114':
                              loop: 114
                              surface: 114
                            '115':
                              loop: 115
                              surface: 115
                            '116':
                              loop: 116
                              surface: 116
                            '117':
                              loop: 117
                              surface: 117
                            '118':
                              loop: 118
                              surface: 118
                            '119':
                              loop: 119
                              surface: 119
                            '120':
                              loop: 120
                              surface: 120
                            '121':
                              loop: 121
                              surface: 121
                            '122':
                              loop: 122
                              surface: 122
                            '123':
                              loop: 123
                              surface: 123
                            '124':
                              loop: 124
                              surface: 124
                            '125':
                              loop: 125
                              surface: 125
                            '126':
                              loop: 126
                              surface: 126
                            '127':
                              loop: 127
                              surface: 127
                            '128':
                              loop: 128
                              surface: 128
                            '129':
                              loop: 129
                              surface: 129
                            '130':
                              loop: 130
                              surface: 130
                            '131':
                              loop: 131
                              surface: 131
                            '132':
                              loop: 132
                              surface: 132
                            '133':
                              loop: 133
                              surface: 133
                            '134':
                              loop: 134
                              surface: 134
                            '135':
                              loop: 135
                              surface: 135
                            '136':
                              loop: 136
                              surface: 136
                            '137':
                              loop: 137
                              surface: 137
                            '138':
                              loop: 138
                              surface: 138
                            '139':
                              loop: 139
                              surface: 139
                            '140':
                              loop: 140
                              surface: 140
                        insulation:
                          points: {}
                          lines: {}
                          areas: {}
                        current_sign: 1
                    conductor_name: SMC11T150
                    conductors_number: 35
        type: reversed-block-coil
        bore_center:
          x: 0.0
          y: 0.0
    physical_order: [{coil: 1, pole: 1, layer: 1, winding: 1, block: 1}, {coil: 1,
        pole: 2, layer: 1, winding: 2, block: 2}, {coil: 1, pole: 1, layer: 1, winding: 1,
        block: 3}, {coil: 1, pole: 2, layer: 1, winding: 2, block: 4}]
    anticlockwise_order:
      coils:
        1:
          layers:
            1: [{pole: 1, winding: 1, block: 1}, {pole: 1, winding: 1, block: 3},
              {pole: 2, winding: 2, block: 2}, {pole: 2, winding: 2, block: 4}]
    concentric_coils:
      ? - 0.0
        - 0.0
      : [1]
    max_radius: 0.0
  iron:
    quadrants: {}
    max_radius: 0.0
  wedges:
    coils: {}
  air:
    points: {}
    lines: {}
    areas: {}
  air_inf:
    points: {}
    lines: {}
    areas: {}
  symmetric_boundaries:
    points: {}
    lines: {}
    areas: {}
  thin_shells:
    mid_layers_ht_to_ht:
      '3_2':
        half_turn_lists:
          '3': [71, 72, 73, 74, 75, 76, 77, 78, 79, 80, 81, 82, 83, 84, 85, 86, 87,
            88, 89, 90, 91, 92, 93, 94, 95, 96, 97, 98, 99, 100, 101, 102, 103, 104,
            105]
          '2': [70, 69, 68, 67, 66, 65, 64, 63, 62, 61, 60, 59, 58, 57, 56, 55, 54,
            53, 52, 51, 50, 49, 48, 47, 46, 45, 44, 43, 42, 41, 40, 39, 38, 37, 36]
        point_angles:
          71l: 0.03975
          105h: 0.095625
          71h: 0.041055
          72h: 0.04266
          72l: 0.041355
          73h: 0.044265
          73l: 0.04296
          74h: 0.04587
          74l: 0.044565
          75h: 0.047475
          75l: 0.04617
          76h: 0.04908
          76l: 0.047775
          77h: 0.050685
          77l: 0.04938
          78h: 0.05229
          78l: 0.050985
          79h: 0.053895
          79l: 0.05259
          80h: 0.0555
          80l: 0.054195
          81h: 0.057105
          81l: 0.0558
          82h: 0.05871
          82l: 0.057405
          83h: 0.060315
          83l: 0.05901
          84h: 0.06192
          84l: 0.060615
          85h: 0.063525
          85l: 0.06222
          86h: 0.06513
          86l: 0.063825
          87h: 0.066735
          87l: 0.06543
          88h: 0.06834
          88l: 0.067035
          89h: 0.069945
          89l: 0.06864
          90h: 0.07155
          90l: 0.070245
          91h: 0.073155
          91l: 0.07185
          92h: 0.07476
          92l: 0.073455
          93h: 0.076365
          93l: 0.07506
          94h: 0.07797
          94l: 0.076665
          95h: 0.079575
          95l: 0.07827
          96h: 0.08118
          96l: 0.079875
          97h: 0.082785
          97l: 0.08148
          98h: 0.08439
          98l: 0.083085
          99h: 0.085995
          99l: 0.08469
          100h: 0.0876
          100l: 0.086295
          101h: 0.089205
          101l: 0.0879
          102h: 0.09081
          102l: 0.089505
          103h: 0.092415
          103l: 0.09111
          104h: 0.09402
          104l: 0.092715
          105l: 0.09432
          70h: 0.09432
          69h: 0.092715
          69l: 0.09402
          68h: 0.09111
          68l: 0.092415
          67h: 0.089505
          67l: 0.09081
          66h: 0.0879
          66l: 0.089205
          65h: 0.086295
          65l: 0.0876
          64h: 0.08469
          64l: 0.085995
          63h: 0.083085
          63l: 0.08439
          62h: 0.08148
          62l: 0.082785
          61h: 0.079875
          61l: 0.08118
          60h: 0.07827
          60l: 0.079575
          59h: 0.076665
          59l: 0.07797
          58h: 0.07506
          58l: 0.076365
          57h: 0.073455
          57l: 0.07476
          56h: 0.07185
          56l: 0.073155
          55h: 0.070245
          55l: 0.07155
          54h: 0.06864
          54l: 0.069945
          53h: 0.067035
          53l: 0.06834
          52h: 0.06543
          52l: 0.066735
          51h: 0.063825
          51l: 0.06513
          50h: 0.06222
          50l: 0.063525
          49h: 0.060615
          49l: 0.06192
          48h: 0.05901
          48l: 0.060315
          47h: 0.057405
          47l: 0.05871
          46h: 0.0558
          46l: 0.057105
          45h: 0.054195
          45l: 0.0555
          44h: 0.05259
          44l: 0.053895
          43h: 0.050985
          43l: 0.05229
          42h: 0.04938
          42l: 0.050685
          41h: 0.047775
          41l: 0.04908
          40h: 0.04617
          40l: 0.047475
          39h: 0.044565
          39l: 0.04587
          38h: 0.04296
          38l: 0.044265
          37h: 0.041355
          37l: 0.04266
          36l: 0.041055
        mid_layers:
          points:
            71l: 1
            105h: 2
            71h: 217
            72h: 222
            72l: 223
            73h: 228
            73l: 229
            74h: 234
            74l: 235
            75h: 240
            75l: 241
            76h: 246
            76l: 247
            77h: 252
            77l: 253
            78h: 258
            78l: 259
            79h: 264
            79l: 265
            80h: 270
            80l: 271
            81h: 276
            81l: 277
            82h: 282
            82l: 283
            83h: 288
            83l: 289
            84h: 294
            84l: 295
            85h: 300
            85l: 301
            86h: 306
            86l: 307
            87h: 312
            87l: 313
            88h: 318
            88l: 319
            89h: 324
            89l: 325
            90h: 330
            90l: 331
            91h: 336
            91l: 337
            92h: 342
            92l: 343
            93h: 348
            93l: 349
            94h: 354
            94l: 355
            95h: 360
            95l: 361
            96h: 366
            96l: 367
            97h: 372
            97l: 373
            98h: 378
            98l: 379
            99h: 384
            99l: 385
            100h: 390
            100l: 391
            101h: 396
            101l: 397
            102h: 402
            102l: 403
            103h: 408
            103l: 409
            104h: 414
            104l: 415
            105l: 420
            70h: 425
            69h: 430
            69l: 431
            68h: 436
            68l: 437
            67h: 442
            67l: 443
            66h: 448
            66l: 449
            65h: 454
            65l: 455
            64h: 460
            64l: 461
            63h: 466
            63l: 467
            62h: 472
            62l: 473
            61h: 478
            61l: 479
            60h: 484
            60l: 485
            59h: 490
            59l: 491
            58h: 496
            58l: 497
            57h: 502
            57l: 503
            56h: 508
            56l: 509
            55h: 514
            55l: 515
            54h: 520
            54l: 521
            53h: 526
            53l: 527
            52h: 532
            52l: 533
            51h: 538
            51l: 539
            50h: 544
            50l: 545
            49h: 550
            49l: 551
            48h: 556
            48l: 557
            47h: 562
            47l: 563
            46h: 568
            46l: 569
            45h: 574
            45l: 575
            44h: 580
            44l: 581
            43h: 586
            43l: 587
            42h: 592
            42l: 593
            41h: 598
            41l: 599
            40h: 604
            40l: 605
            39h: 610
            39l: 611
            38h: 616
            38l: 617
            37h: 622
            37l: 623
            36l: 628
          lines:
            '71_36': 697
            '37_72': 698
            '38_73': 699
            '39_74': 700
            '40_75': 701
            '41_76': 702
            '42_77': 703
            '43_78': 704
            '44_79': 705
            '45_80': 706
            '46_81': 707
            '47_82': 708
            '48_83': 709
            '49_84': 710
            '50_85': 711
            '51_86': 712
            '52_87': 713
            '53_88': 714
            '54_89': 715
            '55_90': 716
            '56_91': 717
            '57_92': 718
            '58_93': 719
            '59_94': 720
            '60_95': 721
            '61_96': 722
            '62_97': 723
            '63_98': 724
            '64_99': 725
            '65_100': 726
            '66_101': 727
            '67_102': 728
            '68_103': 729
            '69_104': 730
            '70_105': 731
          areas: {}
      '4_1':
        half_turn_lists:
          '4': [106, 107, 108, 109, 110, 111, 112, 113, 114, 115, 116, 117, 118, 119,
            120, 121, 122, 123, 124, 125, 126, 127, 128, 129, 130, 131, 132, 133,
            134, 135, 136, 137, 138, 139, 140]
          '1': [35, 34, 33, 32, 31, 30, 29, 28, 27, 26, 25, 24, 23, 22, 21, 20, 19,
            18, 17, 16, 15, 14, 13, 12, 11, 10, 9, 8, 7, 6, 5, 4, 3, 2, 1]
        point_angles:
          106l: 0.03975
          140h: 0.095625
          35h: 0.09432
          34h: 0.092715
          34l: 0.09402
          33h: 0.09111
          33l: 0.092415
          32h: 0.089505
          32l: 0.09081
          31h: 0.0879
          31l: 0.089205
          30h: 0.086295
          30l: 0.0876
          29h: 0.08469
          29l: 0.085995
          28h: 0.083085
          28l: 0.08439
          27h: 0.08148
          27l: 0.082785
          26h: 0.079875
          26l: 0.08118
          25h: 0.07827
          25l: 0.079575
          24h: 0.076665
          24l: 0.07797
          23h: 0.07506
          23l: 0.076365
          22h: 0.073455
          22l: 0.07476
          21h: 0.07185
          21l: 0.073155
          20h: 0.070245
          20l: 0.07155
          19h: 0.06864
          19l: 0.069945
          18h: 0.067035
          18l: 0.06834
          17h: 0.06543
          17l: 0.066735
          16h: 0.063825
          16l: 0.06513
          15h: 0.06222
          15l: 0.063525
          14h: 0.060615
          14l: 0.06192
          13h: 0.05901
          13l: 0.060315
          12h: 0.057405
          12l: 0.05871
          11h: 0.0558
          11l: 0.057105
          10h: 0.054195
          10l: 0.0555
          9h: 0.05259
          9l: 0.053895
          8h: 0.050985
          8l: 0.05229
          7h: 0.04938
          7l: 0.050685
          6h: 0.047775
          6l: 0.04908
          5h: 0.04617
          5l: 0.047475
          4h: 0.044565
          4l: 0.04587
          3h: 0.04296
          3l: 0.044265
          2h: 0.041355
          2l: 0.04266
          1l: 0.041055
          106h: 0.041055
          107h: 0.04266
          107l: 0.041355
          108h: 0.044265
          108l: 0.04296
          109h: 0.04587
          109l: 0.044565
          110h: 0.047475
          110l: 0.04617
          111h: 0.04908
          111l: 0.047775
          112h: 0.050685
          112l: 0.04938
          113h: 0.05229
          113l: 0.050985
          114h: 0.053895
          114l: 0.05259
          115h: 0.0555
          115l: 0.054195
          116h: 0.057105
          116l: 0.0558
          117h: 0.05871
          117l: 0.057405
          118h: 0.060315
          118l: 0.05901
          119h: 0.06192
          119l: 0.060615
          120h: 0.063525
          120l: 0.06222
          121h: 0.06513
          121l: 0.063825
          122h: 0.066735
          122l: 0.06543
          123h: 0.06834
          123l: 0.067035
          124h: 0.069945
          124l: 0.06864
          125h: 0.07155
          125l: 0.070245
          126h: 0.073155
          126l: 0.07185
          127h: 0.07476
          127l: 0.073455
          128h: 0.076365
          128l: 0.07506
          129h: 0.07797
          129l: 0.076665
          130h: 0.079575
          130l: 0.07827
          131h: 0.08118
          131l: 0.079875
          132h: 0.082785
          132l: 0.08148
          133h: 0.08439
          133l: 0.083085
          134h: 0.085995
          134l: 0.08469
          135h: 0.0876
          135l: 0.086295
          136h: 0.089205
          136l: 0.0879
          137h: 0.09081
          137l: 0.089505
          138h: 0.092415
          138l: 0.09111
          139h: 0.09402
          139l: 0.092715
          140l: 0.09432
        mid_layers:
          points:
            106l: 3
            140h: 4
            35h: 9
            34h: 14
            34l: 15
            33h: 20
            33l: 21
            32h: 26
            32l: 27
            31h: 32
            31l: 33
            30h: 38
            30l: 39
            29h: 44
            29l: 45
            28h: 50
            28l: 51
            27h: 56
            27l: 57
            26h: 62
            26l: 63
            25h: 68
            25l: 69
            24h: 74
            24l: 75
            23h: 80
            23l: 81
            22h: 86
            22l: 87
            21h: 92
            21l: 93
            20h: 98
            20l: 99
            19h: 104
            19l: 105
            18h: 110
            18l: 111
            17h: 116
            17l: 117
            16h: 122
            16l: 123
            15h: 128
            15l: 129
            14h: 134
            14l: 135
            13h: 140
            13l: 141
            12h: 146
            12l: 147
            11h: 152
            11l: 153
            10h: 158
            10l: 159
            9h: 164
            9l: 165
            8h: 170
            8l: 171
            7h: 176
            7l: 177
            6h: 182
            6l: 183
            5h: 188
            5l: 189
            4h: 194
            4l: 195
            3h: 200
            3l: 201
            2h: 206
            2l: 207
            1l: 212
            106h: 633
            107h: 638
            107l: 639
            108h: 644
            108l: 645
            109h: 650
            109l: 651
            110h: 656
            110l: 657
            111h: 662
            111l: 663
            112h: 668
            112l: 669
            113h: 674
            113l: 675
            114h: 680
            114l: 681
            115h: 686
            115l: 687
            116h: 692
            116l: 693
            117h: 698
            117l: 699
            118h: 704
            118l: 705
            119h: 710
            119l: 711
            120h: 716
            120l: 717
            121h: 722
            121l: 723
            122h: 728
            122l: 729
            123h: 734
            123l: 735
            124h: 740
            124l: 741
            125h: 746
            125l: 747
            126h: 752
            126l: 753
            127h: 758
            127l: 759
            128h: 764
            128l: 765
            129h: 770
            129l: 771
            130h: 776
            130l: 777
            131h: 782
            131l: 783
            132h: 788
            132l: 789
            133h: 794
            133l: 795
            134h: 800
            134l: 801
            135h: 806
            135l: 807
            136h: 812
            136l: 813
            137h: 818
            137l: 819
            138h: 824
            138l: 825
            139h: 830
            139l: 831
            140l: 836
          lines:
            '106_1': 732
            '107_2': 733
            '108_3': 734
            '109_4': 735
            '110_5': 736
            '111_6': 737
            '112_7': 738
            '113_8': 739
            '114_9': 740
            '115_10': 741
            '116_11': 742
            '117_12': 743
            '118_13': 744
            '119_14': 745
            '120_15': 746
            '121_16': 747
            '122_17': 748
            '123_18': 749
            '124_19': 750
            '125_20': 751
            '126_21': 752
            '127_22': 753
            '128_23': 754
            '129_24': 755
            '130_25': 756
            '131_26': 757
            '132_27': 758
            '133_28': 759
            '134_29': 760
            '135_30': 761
            '136_31': 762
            '137_32': 763
            '138_33': 764
            '139_34': 765
            '35_140': 766
          areas: {}
    mid_layers_wdg_to_ht: {}
    mid_layers_ht_to_wdg: {}
    mid_layers_wdg_to_wdg: {}
    mid_poles: {}
    mid_windings: {}
    mid_turn_blocks:
      '1':
        points:
          35_34_i: 837
          35_34_o: 838
          34_33_i: 839
          34_33_o: 840
          33_32_i: 841
          33_32_o: 842
          32_31_i: 843
          32_31_o: 844
          31_30_i: 845
          31_30_o: 846
          30_29_i: 847
          30_29_o: 848
          29_28_i: 849
          29_28_o: 850
          28_27_i: 851
          28_27_o: 852
          27_26_i: 853
          27_26_o: 854
          26_25_i: 855
          26_25_o: 856
          25_24_i: 857
          25_24_o: 858
          24_23_i: 859
          24_23_o: 860
          23_22_i: 861
          23_22_o: 862
          22_21_i: 863
          22_21_o: 864
          21_20_i: 865
          21_20_o: 866
          20_19_i: 867
          20_19_o: 868
          19_18_i: 869
          19_18_o: 870
          18_17_i: 871
          18_17_o: 872
          17_16_i: 873
          17_16_o: 874
          16_15_i: 875
          16_15_o: 876
          15_14_i: 877
          15_14_o: 878
          14_13_i: 879
          14_13_o: 880
          13_12_i: 881
          13_12_o: 882
          12_11_i: 883
          12_11_o: 884
          11_10_i: 885
          11_10_o: 886
          10_9_i: 887
          10_9_o: 888
          9_8_i: 889
          9_8_o: 890
          8_7_i: 891
          8_7_o: 892
          7_6_i: 893
          7_6_o: 894
          6_5_i: 895
          6_5_o: 896
          5_4_i: 897
          5_4_o: 898
          4_3_i: 899
          4_3_o: 900
          3_2_i: 901
          3_2_o: 902
          2_1_i: 903
          2_1_o: 904
        lines:
          '35_34': 561
          '34_33': 562
          '33_32': 563
          '32_31': 564
          '31_30': 565
          '30_29': 566
          '29_28': 567
          '28_27': 568
          '27_26': 569
          '26_25': 570
          '25_24': 571
          '24_23': 572
          '23_22': 573
          '22_21': 574
          '21_20': 575
          '20_19': 576
          '19_18': 577
          '18_17': 578
          '17_16': 579
          '16_15': 580
          '15_14': 581
          '14_13': 582
          '13_12': 583
          '12_11': 584
          '11_10': 585
          '10_9': 586
          '9_8': 587
          '8_7': 588
          '7_6': 589
          '6_5': 590
          '5_4': 591
          '4_3': 592
          '3_2': 593
          '2_1': 594
        areas: {}
      '3':
        points:
          71_72_i: 905
          71_72_o: 906
          72_73_i: 907
          72_73_o: 908
          73_74_i: 909
          73_74_o: 910
          74_75_i: 911
          74_75_o: 912
          75_76_i: 913
          75_76_o: 914
          76_77_i: 915
          76_77_o: 916
          77_78_i: 917
          77_78_o: 918
          78_79_i: 919
          78_79_o: 920
          79_80_i: 921
          79_80_o: 922
          80_81_i: 923
          80_81_o: 924
          81_82_i: 925
          81_82_o: 926
          82_83_i: 927
          82_83_o: 928
          83_84_i: 929
          83_84_o: 930
          84_85_i: 931
          84_85_o: 932
          85_86_i: 933
          85_86_o: 934
          86_87_i: 935
          86_87_o: 936
          87_88_i: 937
          87_88_o: 938
          88_89_i: 939
          88_89_o: 940
          89_90_i: 941
          89_90_o: 942
          90_91_i: 943
          90_91_o: 944
          91_92_i: 945
          91_92_o: 946
          92_93_i: 947
          92_93_o: 948
          93_94_i: 949
          93_94_o: 950
          94_95_i: 951
          94_95_o: 952
          95_96_i: 953
          95_96_o: 954
          96_97_i: 955
          96_97_o: 956
          97_98_i: 957
          97_98_o: 958
          98_99_i: 959
          98_99_o: 960
          99_100_i: 961
          99_100_o: 962
          100_101_i: 963
          100_101_o: 964
          101_102_i: 965
          101_102_o: 966
          102_103_i: 967
          102_103_o: 968
          103_104_i: 969
          103_104_o: 970
          104_105_i: 971
          104_105_o: 972
        lines:
          '71_72': 595
          '72_73': 596
          '73_74': 597
          '74_75': 598
          '75_76': 599
          '76_77': 600
          '77_78': 601
          '78_79': 602
          '79_80': 603
          '80_81': 604
          '81_82': 605
          '82_83': 606
          '83_84': 607
          '84_85': 608
          '85_86': 609
          '86_87': 610
          '87_88': 611
          '88_89': 612
          '89_90': 613
          '90_91': 614
          '91_92': 615
          '92_93': 616
          '93_94': 617
          '94_95': 618
          '95_96': 619
          '96_97': 620
          '97_98': 621
          '98_99': 622
          '99_100': 623
          '100_101': 624
          '101_102': 625
          '102_103': 626
          '103_104': 627
          '104_105': 628
        areas: {}
      '2':
        points:
          70_69_i: 973
          70_69_o: 974
          69_68_i: 975
          69_68_o: 976
          68_67_i: 977
          68_67_o: 978
          67_66_i: 979
          67_66_o: 980
          66_65_i: 981
          66_65_o: 982
          65_64_i: 983
          65_64_o: 984
          64_63_i: 985
          64_63_o: 986
          63_62_i: 987
          63_62_o: 988
          62_61_i: 989
          62_61_o: 990
          61_60_i: 991
          61_60_o: 992
          60_59_i: 993
          60_59_o: 994
          59_58_i: 995
          59_58_o: 996
          58_57_i: 997
          58_57_o: 998
          57_56_i: 999
          57_56_o: 1000
          56_55_i: 1001
          56_55_o: 1002
          55_54_i: 1003
          55_54_o: 1004
          54_53_i: 1005
          54_53_o: 1006
          53_52_i: 1007
          53_52_o: 1008
          52_51_i: 1009
          52_51_o: 1010
          51_50_i: 1011
          51_50_o: 1012
          50_49_i: 1013
          50_49_o: 1014
          49_48_i: 1015
          49_48_o: 1016
          48_47_i: 1017
          48_47_o: 1018
          47_46_i: 1019
          47_46_o: 1020
          46_45_i: 1021
          46_45_o: 1022
          45_44_i: 1023
          45_44_o: 1024
          44_43_i: 1025
          44_43_o: 1026
          43_42_i: 1027
          43_42_o: 1028
          42_41_i: 1029
          42_41_o: 1030
          41_40_i: 1031
          41_40_o: 1032
          40_39_i: 1033
          40_39_o: 1034
          39_38_i: 1035
          39_38_o: 1036
          38_37_i: 1037
          38_37_o: 1038
          37_36_i: 1039
          37_36_o: 1040
        lines:
          '70_69': 629
          '69_68': 630
          '68_67': 631
          '67_66': 632
          '66_65': 633
          '65_64': 634
          '64_63': 635
          '63_62': 636
          '62_61': 637
          '61_60': 638
          '60_59': 639
          '59_58': 640
          '58_57': 641
          '57_56': 642
          '56_55': 643
          '55_54': 644
          '54_53': 645
          '53_52': 646
          '52_51': 647
          '51_50': 648
          '50_49': 649
          '49_48': 650
          '48_47': 651
          '47_46': 652
          '46_45': 653
          '45_44': 654
          '44_43': 655
          '43_42': 656
          '42_41': 657
          '41_40': 658
          '40_39': 659
          '39_38': 660
          '38_37': 661
          '37_36': 662
        areas: {}
      '4':
        points:
          106_107_i: 1041
          106_107_o: 1042
          107_108_i: 1043
          107_108_o: 1044
          108_109_i: 1045
          108_109_o: 1046
          109_110_i: 1047
          109_110_o: 1048
          110_111_i: 1049
          110_111_o: 1050
          111_112_i: 1051
          111_112_o: 1052
          112_113_i: 1053
          112_113_o: 1054
          113_114_i: 1055
          113_114_o: 1056
          114_115_i: 1057
          114_115_o: 1058
          115_116_i: 1059
          115_116_o: 1060
          116_117_i: 1061
          116_117_o: 1062
          117_118_i: 1063
          117_118_o: 1064
          118_119_i: 1065
          118_119_o: 1066
          119_120_i: 1067
          119_120_o: 1068
          120_121_i: 1069
          120_121_o: 1070
          121_122_i: 1071
          121_122_o: 1072
          122_123_i: 1073
          122_123_o: 1074
          123_124_i: 1075
          123_124_o: 1076
          124_125_i: 1077
          124_125_o: 1078
          125_126_i: 1079
          125_126_o: 1080
          126_127_i: 1081
          126_127_o: 1082
          127_128_i: 1083
          127_128_o: 1084
          128_129_i: 1085
          128_129_o: 1086
          129_130_i: 1087
          129_130_o: 1088
          130_131_i: 1089
          130_131_o: 1090
          131_132_i: 1091
          131_132_o: 1092
          132_133_i: 1093
          132_133_o: 1094
          133_134_i: 1095
          133_134_o: 1096
          134_135_i: 1097
          134_135_o: 1098
          135_136_i: 1099
          135_136_o: 1100
          136_137_i: 1101
          136_137_o: 1102
          137_138_i: 1103
          137_138_o: 1104
          138_139_i: 1105
          138_139_o: 1106
          139_140_i: 1107
          139_140_o: 1108
        lines:
          '106_107': 663
          '107_108': 664
          '108_109': 665
          '109_110': 666
          '110_111': 667
          '111_112': 668
          '112_113': 669
          '113_114': 670
          '114_115': 671
          '115_116': 672
          '116_117': 673
          '117_118': 674
          '118_119': 675
          '119_120': 676
          '120_121': 677
          '121_122': 678
          '122_123': 679
          '123_124': 680
          '124_125': 681
          '125_126': 682
          '126_127': 683
          '127_128': 684
          '128_129': 685
          '129_130': 686
          '130_131': 687
          '131_132': 688
          '132_133': 689
          '133_134': 690
          '134_135': 691
          '135_136': 692
          '136_137': 693
          '137_138': 694
          '138_139': 695
          '139_140': 696
        areas: {}
    mid_wedge_turn: {}
    mid_layers_aux: {}
    ins_thickness:
      mid_pole: {}
      mid_layer:
        '3_2': 0.0008
        '4_1': 0.0008
      mid_winding: {}
  insulation:
    coils: {}
domains:
  groups_entities:
    iron: {}
    air: []
    symmetric_boundaries:
      x: []
      y: []
  physical_groups:
    blocks: {}
    wedges: {}
    insulations:
      curves: {}
      surfaces: {}
    iron:
      curves: {}
      surfaces: {}
    air_inf: null
    air_inf_bnd: null
    air: null
    symmetric_boundaries:
      normal_free: null
      tangential_free: null
    half_turns_points: null
