geometries:
  coil:
    coils:
      1:
        poles:
          1:
            layers:
              1:
                windings:
                  1:
                    blocks:
                      1:
                        half_turns:
                          points:
                            1ih: 3
                            1il: 4
                            1oh: 5
                            1ol: 6
                            2ih: 8
                            2il: 9
                            2oh: 10
                            2ol: 11
                          lines:
                            1i: 1
                            1o: 3
                            1l: 2
                            1h: 4
                            2i: 5
                            2o: 7
                            2l: 6
                            2h: 8
                          areas:
                            '1':
                              loop: 1
                              surface: 1
                            '2':
                              loop: 2
                              surface: 2
                        insulation:
                          points: {}
                          lines: {}
                          areas: {}
                        current_sign: 1
                    conductor_name: KEKI3RD2
                    conductors_number: 2
              2:
                windings:
                  2:
                    blocks:
                      2:
                        half_turns:
                          points:
                            3ih: 13
                            3il: 14
                            3oh: 15
                            3ol: 16
                            4ih: 18
                            4il: 19
                            4oh: 20
                            4ol: 21
                          lines:
                            3i: 9
                            3o: 11
                            3l: 10
                            3h: 12
                            4i: 13
                            4o: 15
                            4l: 14
                            4h: 16
                          areas:
                            '3':
                              loop: 3
                              surface: 3
                            '4':
                              loop: 4
                              surface: 4
                        insulation:
                          points: {}
                          lines: {}
                          areas: {}
                        current_sign: 1
                    conductor_name: KEKI3RD2
                    conductors_number: 2
        type: common-block-coil
        bore_center:
          x: 0.0
          y: 0.0
    physical_order: [{coil: 1, pole: 1, layer: 1, winding: 1, block: 1}, {coil: 1,
        pole: 1, layer: 2, winding: 2, block: 2}]
    anticlockwise_order:
      coils:
        1:
          layers:
            1: [{pole: 1, winding: 1, block: 1}]
            2: [{pole: 1, winding: 2, block: 2}]
    concentric_coils:
      ? - 0.0
        - 0.0
      : [1]
    max_radius: 0.0
  iron:
    quadrants: {}
    max_radius: 0.0
  wedges:
    coils: {}
  air:
    points: {}
    lines: {}
    areas: {}
  air_inf:
    points: {}
    lines: {}
    areas: {}
  symmetric_boundaries:
    points: {}
    lines: {}
    areas: {}
  thin_shells:
    mid_layers_ht_to_ht:
      '1_2':
        half_turn_lists:
          '1': [1, 2]
          '2': [3, 4]
        point_angles:
          1l: 0.0
          2h: 0.27263733
          1h: 0.13156049
          2l: 0.14622361
          3h: 0.13156049
          4l: 0.14622361
        mid_layers:
          points:
            1l: 1
            2h: 2
            1h: 7
            2l: 12
            3h: 17
            4l: 22
          lines:
            '1_3': 19
            '4_2': 20
          areas: {}
    mid_layers_wdg_to_ht: {}
    mid_layers_ht_to_wdg: {}
    mid_layers_wdg_to_wdg: {}
    mid_poles: {}
    mid_windings: {}
    mid_turn_blocks:
      '1':
        points:
          1_2_i: 23
          1_2_o: 24
        lines:
          '1_2': 17
        areas: {}
      '2':
        points:
          3_4_i: 25
          3_4_o: 26
        lines:
          '3_4': 18
        areas: {}
    mid_wedge_turn: {}
    mid_layers_aux: {}
    ins_thickness:
      mid_pole: {}
      mid_layer:
        '1_2': 0.000475
      mid_winding: {}
  insulation:
    coils: {}
domains:
  groups_entities:
    iron: {}
    air: []
    symmetric_boundaries:
      x: []
      y: []
  physical_groups:
    blocks:
      1:
        half_turns:
          1:
            tag: 1000000
            group: r1_a1
            lines:
              i: 1000002
              o: 1000003
              l: 1000004
              h: 1000005
            mid_layer_lines:
              inner: {}
              outer:
                '1_3': 1000020
            mid_pole_lines: {}
            mid_winding_lines: {}
            mid_turn_lines:
              '1_2': 1000022
            aux_lines: {}
          2:
            tag: 1000001
            group: r2_a1
            lines:
              i: 1000006
              o: 1000007
              l: 1000008
              h: 1000009
            mid_layer_lines:
              inner: {}
              outer:
                '4_2': 1000021
            mid_pole_lines: {}
            mid_winding_lines: {}
            mid_turn_lines:
              '1_2': 1000022
            aux_lines: {}
        current_sign: 1
        conductor: KEKI3RD2
      2:
        half_turns:
          3:
            tag: 1000010
            group: r1_a2
            lines:
              i: 1000012
              o: 1000013
              l: 1000014
              h: 1000015
            mid_layer_lines:
              inner:
                '1_3': 1000020
              outer: {}
            mid_pole_lines: {}
            mid_winding_lines: {}
            mid_turn_lines:
              '3_4': 1000023
            aux_lines: {}
          4:
            tag: 1000011
            group: r2_a2
            lines:
              i: 1000016
              o: 1000017
              l: 1000018
              h: 1000019
            mid_layer_lines:
              inner:
                '4_2': 1000021
              outer: {}
            mid_pole_lines: {}
            mid_winding_lines: {}
            mid_turn_lines:
              '3_4': 1000023
            aux_lines: {}
        current_sign: 1
        conductor: KEKI3RD2
    wedges: {}
    insulations:
      curves: {}
      surfaces: {}
    iron:
      curves: {}
      surfaces: {}
    air_inf: null
    air_inf_bnd: null
    air: null
    symmetric_boundaries:
      normal_free: null
      tangential_free: null
    half_turns_points: 4000000
