geometries:
  coil:
    coils:
      1:
        poles:
          1:
            layers:
              1:
                windings:
                  1:
                    blocks:
                      1:
                        half_turns:
                          points:
                            1ih: 1
                            1il: 2
                            1oh: 3
                            1ol: 4
                            2ih: 9
                            2il: 10
                            2oh: 11
                            2ol: 12
                          lines:
                            1i: 1
                            1o: 3
                            1l: 2
                            1h: 4
                            2i: 5
                            2o: 7
                            2l: 6
                            2h: 8
                          areas:
                            '1':
                              loop: 1
                              surface: 1
                            '2':
                              loop: 2
                              surface: 2
                        insulation:
                          points:
                            1ih: 5
                            1il: 6
                            1oh: 7
                            1ol: 8
                            2ih: 13
                            2il: 14
                            2oh: 15
                            2ol: 16
                          lines: {}
                          areas:
                            '1':
                              loop: null
                              surface: null
                        current_sign: 1
                    conductor_name: KEKI3RD2
                    conductors_number: 2
              2:
                windings:
                  2:
                    blocks:
                      2:
                        half_turns:
                          points:
                            3ih: 17
                            3il: 18
                            3oh: 19
                            3ol: 20
                            4ih: 25
                            4il: 26
                            4oh: 27
                            4ol: 28
                          lines:
                            3i: 9
                            3o: 11
                            3l: 10
                            3h: 12
                            4i: 13
                            4o: 15
                            4l: 14
                            4h: 16
                          areas:
                            '3':
                              loop: 3
                              surface: 3
                            '4':
                              loop: 4
                              surface: 4
                        insulation:
                          points:
                            3ih: 21
                            3il: 22
                            3oh: 23
                            3ol: 24
                            4ih: 29
                            4il: 30
                            4oh: 31
                            4ol: 32
                          lines: {}
                          areas:
                            '2':
                              loop: null
                              surface: null
                        current_sign: 1
                    conductor_name: KEKI3RD2
                    conductors_number: 2
        type: common-block-coil
        bore_center:
          x: 0.0
          y: 0.0
    physical_order: [{coil: 1, pole: 1, layer: 1, winding: 1, block: 1}, {coil: 1,
        pole: 1, layer: 2, winding: 2, block: 2}]
    anticlockwise_order:
      coils:
        1:
          layers:
            1: [{pole: 1, winding: 1, block: 1}]
            2: [{pole: 1, winding: 2, block: 2}]
    concentric_coils:
      ? - 0.0
        - 0.0
      : [1]
    max_radius: 0.022475
  iron:
    quadrants: {}
    max_radius: 0.0
  wedges:
    coils: {}
  air:
    points:
      bore_center1: 35
    lines: {}
    areas: {}
  air_inf:
    points: {}
    lines:
      inner: 18
      outer: 17
    areas:
      inner:
        loop: 5
        surface: 6
      outer:
        loop: 6
        surface: 5
  symmetric_boundaries:
    points: {}
    lines: {}
    areas: {}
  thin_shells:
    mid_layers_ht_to_ht: {}
    mid_layers_wdg_to_ht: {}
    mid_layers_ht_to_wdg: {}
    mid_layers_wdg_to_wdg: {}
    mid_poles: {}
    mid_windings: {}
    mid_turn_blocks: {}
    mid_wedge_turn: {}
    mid_layers_aux: {}
    ins_thickness:
      mid_pole: {}
      mid_layer: {}
      mid_winding: {}
  insulation:
    coils: {}
domains:
  groups_entities:
    iron: {}
    air: [6]
    symmetric_boundaries:
      x: []
      y: []
  physical_groups:
    blocks:
      1:
        half_turns:
          1:
            tag: 5
            group: r1_a1
            lines: {}
            mid_layer_lines:
              inner: {}
              outer: {}
            mid_pole_lines: {}
            mid_winding_lines: {}
            mid_turn_lines: {}
            aux_lines: {}
          2:
            tag: 6
            group: r2_a1
            lines: {}
            mid_layer_lines:
              inner: {}
              outer: {}
            mid_pole_lines: {}
            mid_winding_lines: {}
            mid_turn_lines: {}
            aux_lines: {}
        current_sign: 1
        conductor: KEKI3RD2
      2:
        half_turns:
          3:
            tag: 7
            group: r1_a2
            lines: {}
            mid_layer_lines:
              inner: {}
              outer: {}
            mid_pole_lines: {}
            mid_winding_lines: {}
            mid_turn_lines: {}
            aux_lines: {}
          4:
            tag: 8
            group: r2_a2
            lines: {}
            mid_layer_lines:
              inner: {}
              outer: {}
            mid_pole_lines: {}
            mid_winding_lines: {}
            mid_turn_lines: {}
            aux_lines: {}
        current_sign: 1
        conductor: KEKI3RD2
    wedges: {}
    insulations:
      curves: {}
      surfaces: {}
    iron:
      curves: {}
      surfaces: {}
    air_inf: 3
    air_inf_bnd: 2
    air: 4
    symmetric_boundaries:
      normal_free: null
      tangential_free: null
    half_turns_points: null
