geometries:
  coil:
    coils:
      1:
        poles:
          1:
            layers:
              1:
                windings:
                  1:
                    blocks:
                      1:
                        half_turns:
                          points:
                            35ih: 1
                            35il: 2
                            35oh: 3
                            35ol: 4
                            34ih: 9
                            34il: 10
                            34oh: 11
                            34ol: 12
                            33ih: 17
                            33il: 18
                            33oh: 19
                            33ol: 20
                            32ih: 25
                            32il: 26
                            32oh: 27
                            32ol: 28
                            31ih: 33
                            31il: 34
                            31oh: 35
                            31ol: 36
                            30ih: 41
                            30il: 42
                            30oh: 43
                            30ol: 44
                            29ih: 49
                            29il: 50
                            29oh: 51
                            29ol: 52
                            28ih: 57
                            28il: 58
                            28oh: 59
                            28ol: 60
                            27ih: 65
                            27il: 66
                            27oh: 67
                            27ol: 68
                            26ih: 73
                            26il: 74
                            26oh: 75
                            26ol: 76
                            25ih: 81
                            25il: 82
                            25oh: 83
                            25ol: 84
                            24ih: 89
                            24il: 90
                            24oh: 91
                            24ol: 92
                            23ih: 97
                            23il: 98
                            23oh: 99
                            23ol: 100
                            22ih: 105
                            22il: 106
                            22oh: 107
                            22ol: 108
                            21ih: 113
                            21il: 114
                            21oh: 115
                            21ol: 116
                            20ih: 121
                            20il: 122
                            20oh: 123
                            20ol: 124
                            19ih: 129
                            19il: 130
                            19oh: 131
                            19ol: 132
                            18ih: 137
                            18il: 138
                            18oh: 139
                            18ol: 140
                            17ih: 145
                            17il: 146
                            17oh: 147
                            17ol: 148
                            16ih: 153
                            16il: 154
                            16oh: 155
                            16ol: 156
                            15ih: 161
                            15il: 162
                            15oh: 163
                            15ol: 164
                            14ih: 169
                            14il: 170
                            14oh: 171
                            14ol: 172
                            13ih: 177
                            13il: 178
                            13oh: 179
                            13ol: 180
                            12ih: 185
                            12il: 186
                            12oh: 187
                            12ol: 188
                            11ih: 193
                            11il: 194
                            11oh: 195
                            11ol: 196
                            10ih: 201
                            10il: 202
                            10oh: 203
                            10ol: 204
                            9ih: 209
                            9il: 210
                            9oh: 211
                            9ol: 212
                            8ih: 217
                            8il: 218
                            8oh: 219
                            8ol: 220
                            7ih: 225
                            7il: 226
                            7oh: 227
                            7ol: 228
                            6ih: 233
                            6il: 234
                            6oh: 235
                            6ol: 236
                            5ih: 241
                            5il: 242
                            5oh: 243
                            5ol: 244
                            4ih: 249
                            4il: 250
                            4oh: 251
                            4ol: 252
                            3ih: 257
                            3il: 258
                            3oh: 259
                            3ol: 260
                            2ih: 265
                            2il: 266
                            2oh: 267
                            2ol: 268
                            1ih: 273
                            1il: 274
                            1oh: 275
                            1ol: 276
                          lines:
                            35i: 1
                            35o: 3
                            35l: 2
                            35h: 4
                            34i: 5
                            34o: 7
                            34l: 6
                            34h: 8
                            33i: 9
                            33o: 11
                            33l: 10
                            33h: 12
                            32i: 13
                            32o: 15
                            32l: 14
                            32h: 16
                            31i: 17
                            31o: 19
                            31l: 18
                            31h: 20
                            30i: 21
                            30o: 23
                            30l: 22
                            30h: 24
                            29i: 25
                            29o: 27
                            29l: 26
                            29h: 28
                            28i: 29
                            28o: 31
                            28l: 30
                            28h: 32
                            27i: 33
                            27o: 35
                            27l: 34
                            27h: 36
                            26i: 37
                            26o: 39
                            26l: 38
                            26h: 40
                            25i: 41
                            25o: 43
                            25l: 42
                            25h: 44
                            24i: 45
                            24o: 47
                            24l: 46
                            24h: 48
                            23i: 49
                            23o: 51
                            23l: 50
                            23h: 52
                            22i: 53
                            22o: 55
                            22l: 54
                            22h: 56
                            21i: 57
                            21o: 59
                            21l: 58
                            21h: 60
                            20i: 61
                            20o: 63
                            20l: 62
                            20h: 64
                            19i: 65
                            19o: 67
                            19l: 66
                            19h: 68
                            18i: 69
                            18o: 71
                            18l: 70
                            18h: 72
                            17i: 73
                            17o: 75
                            17l: 74
                            17h: 76
                            16i: 77
                            16o: 79
                            16l: 78
                            16h: 80
                            15i: 81
                            15o: 83
                            15l: 82
                            15h: 84
                            14i: 85
                            14o: 87
                            14l: 86
                            14h: 88
                            13i: 89
                            13o: 91
                            13l: 90
                            13h: 92
                            12i: 93
                            12o: 95
                            12l: 94
                            12h: 96
                            11i: 97
                            11o: 99
                            11l: 98
                            11h: 100
                            10i: 101
                            10o: 103
                            10l: 102
                            10h: 104
                            9i: 105
                            9o: 107
                            9l: 106
                            9h: 108
                            8i: 109
                            8o: 111
                            8l: 110
                            8h: 112
                            7i: 113
                            7o: 115
                            7l: 114
                            7h: 116
                            6i: 117
                            6o: 119
                            6l: 118
                            6h: 120
                            5i: 121
                            5o: 123
                            5l: 122
                            5h: 124
                            4i: 125
                            4o: 127
                            4l: 126
                            4h: 128
                            3i: 129
                            3o: 131
                            3l: 130
                            3h: 132
                            2i: 133
                            2o: 135
                            2l: 134
                            2h: 136
                            1i: 137
                            1o: 139
                            1l: 138
                            1h: 140
                          areas:
                            '35':
                              loop: 1
                              surface: 1
                            '34':
                              loop: 2
                              surface: 2
                            '33':
                              loop: 3
                              surface: 3
                            '32':
                              loop: 4
                              surface: 4
                            '31':
                              loop: 5
                              surface: 5
                            '30':
                              loop: 6
                              surface: 6
                            '29':
                              loop: 7
                              surface: 7
                            '28':
                              loop: 8
                              surface: 8
                            '27':
                              loop: 9
                              surface: 9
                            '26':
                              loop: 10
                              surface: 10
                            '25':
                              loop: 11
                              surface: 11
                            '24':
                              loop: 12
                              surface: 12
                            '23':
                              loop: 13
                              surface: 13
                            '22':
                              loop: 14
                              surface: 14
                            '21':
                              loop: 15
                              surface: 15
                            '20':
                              loop: 16
                              surface: 16
                            '19':
                              loop: 17
                              surface: 17
                            '18':
                              loop: 18
                              surface: 18
                            '17':
                              loop: 19
                              surface: 19
                            '16':
                              loop: 20
                              surface: 20
                            '15':
                              loop: 21
                              surface: 21
                            '14':
                              loop: 22
                              surface: 22
                            '13':
                              loop: 23
                              surface: 23
                            '12':
                              loop: 24
                              surface: 24
                            '11':
                              loop: 25
                              surface: 25
                            '10':
                              loop: 26
                              surface: 26
                            '9':
                              loop: 27
                              surface: 27
                            '8':
                              loop: 28
                              surface: 28
                            '7':
                              loop: 29
                              surface: 29
                            '6':
                              loop: 30
                              surface: 30
                            '5':
                              loop: 31
                              surface: 31
                            '4':
                              loop: 32
                              surface: 32
                            '3':
                              loop: 33
                              surface: 33
                            '2':
                              loop: 34
                              surface: 34
                            '1':
                              loop: 35
                              surface: 35
                        insulation:
                          points:
                            35ih: 5
                            35il: 6
                            35oh: 7
                            35ol: 8
                            34ih: 13
                            34il: 14
                            34oh: 15
                            34ol: 16
                            33ih: 21
                            33il: 22
                            33oh: 23
                            33ol: 24
                            32ih: 29
                            32il: 30
                            32oh: 31
                            32ol: 32
                            31ih: 37
                            31il: 38
                            31oh: 39
                            31ol: 40
                            30ih: 45
                            30il: 46
                            30oh: 47
                            30ol: 48
                            29ih: 53
                            29il: 54
                            29oh: 55
                            29ol: 56
                            28ih: 61
                            28il: 62
                            28oh: 63
                            28ol: 64
                            27ih: 69
                            27il: 70
                            27oh: 71
                            27ol: 72
                            26ih: 77
                            26il: 78
                            26oh: 79
                            26ol: 80
                            25ih: 85
                            25il: 86
                            25oh: 87
                            25ol: 88
                            24ih: 93
                            24il: 94
                            24oh: 95
                            24ol: 96
                            23ih: 101
                            23il: 102
                            23oh: 103
                            23ol: 104
                            22ih: 109
                            22il: 110
                            22oh: 111
                            22ol: 112
                            21ih: 117
                            21il: 118
                            21oh: 119
                            21ol: 120
                            20ih: 125
                            20il: 126
                            20oh: 127
                            20ol: 128
                            19ih: 133
                            19il: 134
                            19oh: 135
                            19ol: 136
                            18ih: 141
                            18il: 142
                            18oh: 143
                            18ol: 144
                            17ih: 149
                            17il: 150
                            17oh: 151
                            17ol: 152
                            16ih: 157
                            16il: 158
                            16oh: 159
                            16ol: 160
                            15ih: 165
                            15il: 166
                            15oh: 167
                            15ol: 168
                            14ih: 173
                            14il: 174
                            14oh: 175
                            14ol: 176
                            13ih: 181
                            13il: 182
                            13oh: 183
                            13ol: 184
                            12ih: 189
                            12il: 190
                            12oh: 191
                            12ol: 192
                            11ih: 197
                            11il: 198
                            11oh: 199
                            11ol: 200
                            10ih: 205
                            10il: 206
                            10oh: 207
                            10ol: 208
                            9ih: 213
                            9il: 214
                            9oh: 215
                            9ol: 216
                            8ih: 221
                            8il: 222
                            8oh: 223
                            8ol: 224
                            7ih: 229
                            7il: 230
                            7oh: 231
                            7ol: 232
                            6ih: 237
                            6il: 238
                            6oh: 239
                            6ol: 240
                            5ih: 245
                            5il: 246
                            5oh: 247
                            5ol: 248
                            4ih: 253
                            4il: 254
                            4oh: 255
                            4ol: 256
                            3ih: 261
                            3il: 262
                            3oh: 263
                            3ol: 264
                            2ih: 269
                            2il: 270
                            2oh: 271
                            2ol: 272
                            1ih: 277
                            1il: 278
                            1oh: 279
                            1ol: 280
                          lines: {}
                          areas:
                            '1':
                              loop: null
                              surface: null
                        current_sign: 1
                      3:
                        half_turns:
                          points:
                            71ih: 281
                            71il: 282
                            71oh: 283
                            71ol: 284
                            72ih: 289
                            72il: 290
                            72oh: 291
                            72ol: 292
                            73ih: 297
                            73il: 298
                            73oh: 299
                            73ol: 300
                            74ih: 305
                            74il: 306
                            74oh: 307
                            74ol: 308
                            75ih: 313
                            75il: 314
                            75oh: 315
                            75ol: 316
                            76ih: 321
                            76il: 322
                            76oh: 323
                            76ol: 324
                            77ih: 329
                            77il: 330
                            77oh: 331
                            77ol: 332
                            78ih: 337
                            78il: 338
                            78oh: 339
                            78ol: 340
                            79ih: 345
                            79il: 346
                            79oh: 347
                            79ol: 348
                            80ih: 353
                            80il: 354
                            80oh: 355
                            80ol: 356
                            81ih: 361
                            81il: 362
                            81oh: 363
                            81ol: 364
                            82ih: 369
                            82il: 370
                            82oh: 371
                            82ol: 372
                            83ih: 377
                            83il: 378
                            83oh: 379
                            83ol: 380
                            84ih: 385
                            84il: 386
                            84oh: 387
                            84ol: 388
                            85ih: 393
                            85il: 394
                            85oh: 395
                            85ol: 396
                            86ih: 401
                            86il: 402
                            86oh: 403
                            86ol: 404
                            87ih: 409
                            87il: 410
                            87oh: 411
                            87ol: 412
                            88ih: 417
                            88il: 418
                            88oh: 419
                            88ol: 420
                            89ih: 425
                            89il: 426
                            89oh: 427
                            89ol: 428
                            90ih: 433
                            90il: 434
                            90oh: 435
                            90ol: 436
                            91ih: 441
                            91il: 442
                            91oh: 443
                            91ol: 444
                            92ih: 449
                            92il: 450
                            92oh: 451
                            92ol: 452
                            93ih: 457
                            93il: 458
                            93oh: 459
                            93ol: 460
                            94ih: 465
                            94il: 466
                            94oh: 467
                            94ol: 468
                            95ih: 473
                            95il: 474
                            95oh: 475
                            95ol: 476
                            96ih: 481
                            96il: 482
                            96oh: 483
                            96ol: 484
                            97ih: 489
                            97il: 490
                            97oh: 491
                            97ol: 492
                            98ih: 497
                            98il: 498
                            98oh: 499
                            98ol: 500
                            99ih: 505
                            99il: 506
                            99oh: 507
                            99ol: 508
                            100ih: 513
                            100il: 514
                            100oh: 515
                            100ol: 516
                            101ih: 521
                            101il: 522
                            101oh: 523
                            101ol: 524
                            102ih: 529
                            102il: 530
                            102oh: 531
                            102ol: 532
                            103ih: 537
                            103il: 538
                            103oh: 539
                            103ol: 540
                            104ih: 545
                            104il: 546
                            104oh: 547
                            104ol: 548
                            105ih: 553
                            105il: 554
                            105oh: 555
                            105ol: 556
                          lines:
                            71i: 141
                            71o: 143
                            71l: 142
                            71h: 144
                            72i: 145
                            72o: 147
                            72l: 146
                            72h: 148
                            73i: 149
                            73o: 151
                            73l: 150
                            73h: 152
                            74i: 153
                            74o: 155
                            74l: 154
                            74h: 156
                            75i: 157
                            75o: 159
                            75l: 158
                            75h: 160
                            76i: 161
                            76o: 163
                            76l: 162
                            76h: 164
                            77i: 165
                            77o: 167
                            77l: 166
                            77h: 168
                            78i: 169
                            78o: 171
                            78l: 170
                            78h: 172
                            79i: 173
                            79o: 175
                            79l: 174
                            79h: 176
                            80i: 177
                            80o: 179
                            80l: 178
                            80h: 180
                            81i: 181
                            81o: 183
                            81l: 182
                            81h: 184
                            82i: 185
                            82o: 187
                            82l: 186
                            82h: 188
                            83i: 189
                            83o: 191
                            83l: 190
                            83h: 192
                            84i: 193
                            84o: 195
                            84l: 194
                            84h: 196
                            85i: 197
                            85o: 199
                            85l: 198
                            85h: 200
                            86i: 201
                            86o: 203
                            86l: 202
                            86h: 204
                            87i: 205
                            87o: 207
                            87l: 206
                            87h: 208
                            88i: 209
                            88o: 211
                            88l: 210
                            88h: 212
                            89i: 213
                            89o: 215
                            89l: 214
                            89h: 216
                            90i: 217
                            90o: 219
                            90l: 218
                            90h: 220
                            91i: 221
                            91o: 223
                            91l: 222
                            91h: 224
                            92i: 225
                            92o: 227
                            92l: 226
                            92h: 228
                            93i: 229
                            93o: 231
                            93l: 230
                            93h: 232
                            94i: 233
                            94o: 235
                            94l: 234
                            94h: 236
                            95i: 237
                            95o: 239
                            95l: 238
                            95h: 240
                            96i: 241
                            96o: 243
                            96l: 242
                            96h: 244
                            97i: 245
                            97o: 247
                            97l: 246
                            97h: 248
                            98i: 249
                            98o: 251
                            98l: 250
                            98h: 252
                            99i: 253
                            99o: 255
                            99l: 254
                            99h: 256
                            100i: 257
                            100o: 259
                            100l: 258
                            100h: 260
                            101i: 261
                            101o: 263
                            101l: 262
                            101h: 264
                            102i: 265
                            102o: 267
                            102l: 266
                            102h: 268
                            103i: 269
                            103o: 271
                            103l: 270
                            103h: 272
                            104i: 273
                            104o: 275
                            104l: 274
                            104h: 276
                            105i: 277
                            105o: 279
                            105l: 278
                            105h: 280
                          areas:
                            '71':
                              loop: 36
                              surface: 36
                            '72':
                              loop: 37
                              surface: 37
                            '73':
                              loop: 38
                              surface: 38
                            '74':
                              loop: 39
                              surface: 39
                            '75':
                              loop: 40
                              surface: 40
                            '76':
                              loop: 41
                              surface: 41
                            '77':
                              loop: 42
                              surface: 42
                            '78':
                              loop: 43
                              surface: 43
                            '79':
                              loop: 44
                              surface: 44
                            '80':
                              loop: 45
                              surface: 45
                            '81':
                              loop: 46
                              surface: 46
                            '82':
                              loop: 47
                              surface: 47
                            '83':
                              loop: 48
                              surface: 48
                            '84':
                              loop: 49
                              surface: 49
                            '85':
                              loop: 50
                              surface: 50
                            '86':
                              loop: 51
                              surface: 51
                            '87':
                              loop: 52
                              surface: 52
                            '88':
                              loop: 53
                              surface: 53
                            '89':
                              loop: 54
                              surface: 54
                            '90':
                              loop: 55
                              surface: 55
                            '91':
                              loop: 56
                              surface: 56
                            '92':
                              loop: 57
                              surface: 57
                            '93':
                              loop: 58
                              surface: 58
                            '94':
                              loop: 59
                              surface: 59
                            '95':
                              loop: 60
                              surface: 60
                            '96':
                              loop: 61
                              surface: 61
                            '97':
                              loop: 62
                              surface: 62
                            '98':
                              loop: 63
                              surface: 63
                            '99':
                              loop: 64
                              surface: 64
                            '100':
                              loop: 65
                              surface: 65
                            '101':
                              loop: 66
                              surface: 66
                            '102':
                              loop: 67
                              surface: 67
                            '103':
                              loop: 68
                              surface: 68
                            '104':
                              loop: 69
                              surface: 69
                            '105':
                              loop: 70
                              surface: 70
                        insulation:
                          points:
                            71ih: 285
                            71il: 286
                            71oh: 287
                            71ol: 288
                            72ih: 293
                            72il: 294
                            72oh: 295
                            72ol: 296
                            73ih: 301
                            73il: 302
                            73oh: 303
                            73ol: 304
                            74ih: 309
                            74il: 310
                            74oh: 311
                            74ol: 312
                            75ih: 317
                            75il: 318
                            75oh: 319
                            75ol: 320
                            76ih: 325
                            76il: 326
                            76oh: 327
                            76ol: 328
                            77ih: 333
                            77il: 334
                            77oh: 335
                            77ol: 336
                            78ih: 341
                            78il: 342
                            78oh: 343
                            78ol: 344
                            79ih: 349
                            79il: 350
                            79oh: 351
                            79ol: 352
                            80ih: 357
                            80il: 358
                            80oh: 359
                            80ol: 360
                            81ih: 365
                            81il: 366
                            81oh: 367
                            81ol: 368
                            82ih: 373
                            82il: 374
                            82oh: 375
                            82ol: 376
                            83ih: 381
                            83il: 382
                            83oh: 383
                            83ol: 384
                            84ih: 389
                            84il: 390
                            84oh: 391
                            84ol: 392
                            85ih: 397
                            85il: 398
                            85oh: 399
                            85ol: 400
                            86ih: 405
                            86il: 406
                            86oh: 407
                            86ol: 408
                            87ih: 413
                            87il: 414
                            87oh: 415
                            87ol: 416
                            88ih: 421
                            88il: 422
                            88oh: 423
                            88ol: 424
                            89ih: 429
                            89il: 430
                            89oh: 431
                            89ol: 432
                            90ih: 437
                            90il: 438
                            90oh: 439
                            90ol: 440
                            91ih: 445
                            91il: 446
                            91oh: 447
                            91ol: 448
                            92ih: 453
                            92il: 454
                            92oh: 455
                            92ol: 456
                            93ih: 461
                            93il: 462
                            93oh: 463
                            93ol: 464
                            94ih: 469
                            94il: 470
                            94oh: 471
                            94ol: 472
                            95ih: 477
                            95il: 478
                            95oh: 479
                            95ol: 480
                            96ih: 485
                            96il: 486
                            96oh: 487
                            96ol: 488
                            97ih: 493
                            97il: 494
                            97oh: 495
                            97ol: 496
                            98ih: 501
                            98il: 502
                            98oh: 503
                            98ol: 504
                            99ih: 509
                            99il: 510
                            99oh: 511
                            99ol: 512
                            100ih: 517
                            100il: 518
                            100oh: 519
                            100ol: 520
                            101ih: 525
                            101il: 526
                            101oh: 527
                            101ol: 528
                            102ih: 533
                            102il: 534
                            102oh: 535
                            102ol: 536
                            103ih: 541
                            103il: 542
                            103oh: 543
                            103ol: 544
                            104ih: 549
                            104il: 550
                            104oh: 551
                            104ol: 552
                            105ih: 557
                            105il: 558
                            105oh: 559
                            105ol: 560
                          lines: {}
                          areas:
                            '3':
                              loop: null
                              surface: null
                        current_sign: -1
                    conductor_name: SMC11T150
                    conductors_number: 35
          2:
            layers:
              1:
                windings:
                  2:
                    blocks:
                      2:
                        half_turns:
                          points:
                            70ih: 561
                            70il: 562
                            70oh: 563
                            70ol: 564
                            69ih: 569
                            69il: 570
                            69oh: 571
                            69ol: 572
                            68ih: 577
                            68il: 578
                            68oh: 579
                            68ol: 580
                            67ih: 585
                            67il: 586
                            67oh: 587
                            67ol: 588
                            66ih: 593
                            66il: 594
                            66oh: 595
                            66ol: 596
                            65ih: 601
                            65il: 602
                            65oh: 603
                            65ol: 604
                            64ih: 609
                            64il: 610
                            64oh: 611
                            64ol: 612
                            63ih: 617
                            63il: 618
                            63oh: 619
                            63ol: 620
                            62ih: 625
                            62il: 626
                            62oh: 627
                            62ol: 628
                            61ih: 633
                            61il: 634
                            61oh: 635
                            61ol: 636
                            60ih: 641
                            60il: 642
                            60oh: 643
                            60ol: 644
                            59ih: 649
                            59il: 650
                            59oh: 651
                            59ol: 652
                            58ih: 657
                            58il: 658
                            58oh: 659
                            58ol: 660
                            57ih: 665
                            57il: 666
                            57oh: 667
                            57ol: 668
                            56ih: 673
                            56il: 674
                            56oh: 675
                            56ol: 676
                            55ih: 681
                            55il: 682
                            55oh: 683
                            55ol: 684
                            54ih: 689
                            54il: 690
                            54oh: 691
                            54ol: 692
                            53ih: 697
                            53il: 698
                            53oh: 699
                            53ol: 700
                            52ih: 705
                            52il: 706
                            52oh: 707
                            52ol: 708
                            51ih: 713
                            51il: 714
                            51oh: 715
                            51ol: 716
                            50ih: 721
                            50il: 722
                            50oh: 723
                            50ol: 724
                            49ih: 729
                            49il: 730
                            49oh: 731
                            49ol: 732
                            48ih: 737
                            48il: 738
                            48oh: 739
                            48ol: 740
                            47ih: 745
                            47il: 746
                            47oh: 747
                            47ol: 748
                            46ih: 753
                            46il: 754
                            46oh: 755
                            46ol: 756
                            45ih: 761
                            45il: 762
                            45oh: 763
                            45ol: 764
                            44ih: 769
                            44il: 770
                            44oh: 771
                            44ol: 772
                            43ih: 777
                            43il: 778
                            43oh: 779
                            43ol: 780
                            42ih: 785
                            42il: 786
                            42oh: 787
                            42ol: 788
                            41ih: 793
                            41il: 794
                            41oh: 795
                            41ol: 796
                            40ih: 801
                            40il: 802
                            40oh: 803
                            40ol: 804
                            39ih: 809
                            39il: 810
                            39oh: 811
                            39ol: 812
                            38ih: 817
                            38il: 818
                            38oh: 819
                            38ol: 820
                            37ih: 825
                            37il: 826
                            37oh: 827
                            37ol: 828
                            36ih: 833
                            36il: 834
                            36oh: 835
                            36ol: 836
                          lines:
                            70i: 281
                            70o: 283
                            70l: 282
                            70h: 284
                            69i: 285
                            69o: 287
                            69l: 286
                            69h: 288
                            68i: 289
                            68o: 291
                            68l: 290
                            68h: 292
                            67i: 293
                            67o: 295
                            67l: 294
                            67h: 296
                            66i: 297
                            66o: 299
                            66l: 298
                            66h: 300
                            65i: 301
                            65o: 303
                            65l: 302
                            65h: 304
                            64i: 305
                            64o: 307
                            64l: 306
                            64h: 308
                            63i: 309
                            63o: 311
                            63l: 310
                            63h: 312
                            62i: 313
                            62o: 315
                            62l: 314
                            62h: 316
                            61i: 317
                            61o: 319
                            61l: 318
                            61h: 320
                            60i: 321
                            60o: 323
                            60l: 322
                            60h: 324
                            59i: 325
                            59o: 327
                            59l: 326
                            59h: 328
                            58i: 329
                            58o: 331
                            58l: 330
                            58h: 332
                            57i: 333
                            57o: 335
                            57l: 334
                            57h: 336
                            56i: 337
                            56o: 339
                            56l: 338
                            56h: 340
                            55i: 341
                            55o: 343
                            55l: 342
                            55h: 344
                            54i: 345
                            54o: 347
                            54l: 346
                            54h: 348
                            53i: 349
                            53o: 351
                            53l: 350
                            53h: 352
                            52i: 353
                            52o: 355
                            52l: 354
                            52h: 356
                            51i: 357
                            51o: 359
                            51l: 358
                            51h: 360
                            50i: 361
                            50o: 363
                            50l: 362
                            50h: 364
                            49i: 365
                            49o: 367
                            49l: 366
                            49h: 368
                            48i: 369
                            48o: 371
                            48l: 370
                            48h: 372
                            47i: 373
                            47o: 375
                            47l: 374
                            47h: 376
                            46i: 377
                            46o: 379
                            46l: 378
                            46h: 380
                            45i: 381
                            45o: 383
                            45l: 382
                            45h: 384
                            44i: 385
                            44o: 387
                            44l: 386
                            44h: 388
                            43i: 389
                            43o: 391
                            43l: 390
                            43h: 392
                            42i: 393
                            42o: 395
                            42l: 394
                            42h: 396
                            41i: 397
                            41o: 399
                            41l: 398
                            41h: 400
                            40i: 401
                            40o: 403
                            40l: 402
                            40h: 404
                            39i: 405
                            39o: 407
                            39l: 406
                            39h: 408
                            38i: 409
                            38o: 411
                            38l: 410
                            38h: 412
                            37i: 413
                            37o: 415
                            37l: 414
                            37h: 416
                            36i: 417
                            36o: 419
                            36l: 418
                            36h: 420
                          areas:
                            '70':
                              loop: 71
                              surface: 71
                            '69':
                              loop: 72
                              surface: 72
                            '68':
                              loop: 73
                              surface: 73
                            '67':
                              loop: 74
                              surface: 74
                            '66':
                              loop: 75
                              surface: 75
                            '65':
                              loop: 76
                              surface: 76
                            '64':
                              loop: 77
                              surface: 77
                            '63':
                              loop: 78
                              surface: 78
                            '62':
                              loop: 79
                              surface: 79
                            '61':
                              loop: 80
                              surface: 80
                            '60':
                              loop: 81
                              surface: 81
                            '59':
                              loop: 82
                              surface: 82
                            '58':
                              loop: 83
                              surface: 83
                            '57':
                              loop: 84
                              surface: 84
                            '56':
                              loop: 85
                              surface: 85
                            '55':
                              loop: 86
                              surface: 86
                            '54':
                              loop: 87
                              surface: 87
                            '53':
                              loop: 88
                              surface: 88
                            '52':
                              loop: 89
                              surface: 89
                            '51':
                              loop: 90
                              surface: 90
                            '50':
                              loop: 91
                              surface: 91
                            '49':
                              loop: 92
                              surface: 92
                            '48':
                              loop: 93
                              surface: 93
                            '47':
                              loop: 94
                              surface: 94
                            '46':
                              loop: 95
                              surface: 95
                            '45':
                              loop: 96
                              surface: 96
                            '44':
                              loop: 97
                              surface: 97
                            '43':
                              loop: 98
                              surface: 98
                            '42':
                              loop: 99
                              surface: 99
                            '41':
                              loop: 100
                              surface: 100
                            '40':
                              loop: 101
                              surface: 101
                            '39':
                              loop: 102
                              surface: 102
                            '38':
                              loop: 103
                              surface: 103
                            '37':
                              loop: 104
                              surface: 104
                            '36':
                              loop: 105
                              surface: 105
                        insulation:
                          points:
                            70ih: 565
                            70il: 566
                            70oh: 567
                            70ol: 568
                            69ih: 573
                            69il: 574
                            69oh: 575
                            69ol: 576
                            68ih: 581
                            68il: 582
                            68oh: 583
                            68ol: 584
                            67ih: 589
                            67il: 590
                            67oh: 591
                            67ol: 592
                            66ih: 597
                            66il: 598
                            66oh: 599
                            66ol: 600
                            65ih: 605
                            65il: 606
                            65oh: 607
                            65ol: 608
                            64ih: 613
                            64il: 614
                            64oh: 615
                            64ol: 616
                            63ih: 621
                            63il: 622
                            63oh: 623
                            63ol: 624
                            62ih: 629
                            62il: 630
                            62oh: 631
                            62ol: 632
                            61ih: 637
                            61il: 638
                            61oh: 639
                            61ol: 640
                            60ih: 645
                            60il: 646
                            60oh: 647
                            60ol: 648
                            59ih: 653
                            59il: 654
                            59oh: 655
                            59ol: 656
                            58ih: 661
                            58il: 662
                            58oh: 663
                            58ol: 664
                            57ih: 669
                            57il: 670
                            57oh: 671
                            57ol: 672
                            56ih: 677
                            56il: 678
                            56oh: 679
                            56ol: 680
                            55ih: 685
                            55il: 686
                            55oh: 687
                            55ol: 688
                            54ih: 693
                            54il: 694
                            54oh: 695
                            54ol: 696
                            53ih: 701
                            53il: 702
                            53oh: 703
                            53ol: 704
                            52ih: 709
                            52il: 710
                            52oh: 711
                            52ol: 712
                            51ih: 717
                            51il: 718
                            51oh: 719
                            51ol: 720
                            50ih: 725
                            50il: 726
                            50oh: 727
                            50ol: 728
                            49ih: 733
                            49il: 734
                            49oh: 735
                            49ol: 736
                            48ih: 741
                            48il: 742
                            48oh: 743
                            48ol: 744
                            47ih: 749
                            47il: 750
                            47oh: 751
                            47ol: 752
                            46ih: 757
                            46il: 758
                            46oh: 759
                            46ol: 760
                            45ih: 765
                            45il: 766
                            45oh: 767
                            45ol: 768
                            44ih: 773
                            44il: 774
                            44oh: 775
                            44ol: 776
                            43ih: 781
                            43il: 782
                            43oh: 783
                            43ol: 784
                            42ih: 789
                            42il: 790
                            42oh: 791
                            42ol: 792
                            41ih: 797
                            41il: 798
                            41oh: 799
                            41ol: 800
                            40ih: 805
                            40il: 806
                            40oh: 807
                            40ol: 808
                            39ih: 813
                            39il: 814
                            39oh: 815
                            39ol: 816
                            38ih: 821
                            38il: 822
                            38oh: 823
                            38ol: 824
                            37ih: 829
                            37il: 830
                            37oh: 831
                            37ol: 832
                            36ih: 837
                            36il: 838
                            36oh: 839
                            36ol: 840
                          lines: {}
                          areas:
                            '2':
                              loop: null
                              surface: null
                        current_sign: -1
                      4:
                        half_turns:
                          points:
                            106ih: 841
                            106il: 842
                            106oh: 843
                            106ol: 844
                            107ih: 849
                            107il: 850
                            107oh: 851
                            107ol: 852
                            108ih: 857
                            108il: 858
                            108oh: 859
                            108ol: 860
                            109ih: 865
                            109il: 866
                            109oh: 867
                            109ol: 868
                            110ih: 873
                            110il: 874
                            110oh: 875
                            110ol: 876
                            111ih: 881
                            111il: 882
                            111oh: 883
                            111ol: 884
                            112ih: 889
                            112il: 890
                            112oh: 891
                            112ol: 892
                            113ih: 897
                            113il: 898
                            113oh: 899
                            113ol: 900
                            114ih: 905
                            114il: 906
                            114oh: 907
                            114ol: 908
                            115ih: 913
                            115il: 914
                            115oh: 915
                            115ol: 916
                            116ih: 921
                            116il: 922
                            116oh: 923
                            116ol: 924
                            117ih: 929
                            117il: 930
                            117oh: 931
                            117ol: 932
                            118ih: 937
                            118il: 938
                            118oh: 939
                            118ol: 940
                            119ih: 945
                            119il: 946
                            119oh: 947
                            119ol: 948
                            120ih: 953
                            120il: 954
                            120oh: 955
                            120ol: 956
                            121ih: 961
                            121il: 962
                            121oh: 963
                            121ol: 964
                            122ih: 969
                            122il: 970
                            122oh: 971
                            122ol: 972
                            123ih: 977
                            123il: 978
                            123oh: 979
                            123ol: 980
                            124ih: 985
                            124il: 986
                            124oh: 987
                            124ol: 988
                            125ih: 993
                            125il: 994
                            125oh: 995
                            125ol: 996
                            126ih: 1001
                            126il: 1002
                            126oh: 1003
                            126ol: 1004
                            127ih: 1009
                            127il: 1010
                            127oh: 1011
                            127ol: 1012
                            128ih: 1017
                            128il: 1018
                            128oh: 1019
                            128ol: 1020
                            129ih: 1025
                            129il: 1026
                            129oh: 1027
                            129ol: 1028
                            130ih: 1033
                            130il: 1034
                            130oh: 1035
                            130ol: 1036
                            131ih: 1041
                            131il: 1042
                            131oh: 1043
                            131ol: 1044
                            132ih: 1049
                            132il: 1050
                            132oh: 1051
                            132ol: 1052
                            133ih: 1057
                            133il: 1058
                            133oh: 1059
                            133ol: 1060
                            134ih: 1065
                            134il: 1066
                            134oh: 1067
                            134ol: 1068
                            135ih: 1073
                            135il: 1074
                            135oh: 1075
                            135ol: 1076
                            136ih: 1081
                            136il: 1082
                            136oh: 1083
                            136ol: 1084
                            137ih: 1089
                            137il: 1090
                            137oh: 1091
                            137ol: 1092
                            138ih: 1097
                            138il: 1098
                            138oh: 1099
                            138ol: 1100
                            139ih: 1105
                            139il: 1106
                            139oh: 1107
                            139ol: 1108
                            140ih: 1113
                            140il: 1114
                            140oh: 1115
                            140ol: 1116
                          lines:
                            106i: 421
                            106o: 423
                            106l: 422
                            106h: 424
                            107i: 425
                            107o: 427
                            107l: 426
                            107h: 428
                            108i: 429
                            108o: 431
                            108l: 430
                            108h: 432
                            109i: 433
                            109o: 435
                            109l: 434
                            109h: 436
                            110i: 437
                            110o: 439
                            110l: 438
                            110h: 440
                            111i: 441
                            111o: 443
                            111l: 442
                            111h: 444
                            112i: 445
                            112o: 447
                            112l: 446
                            112h: 448
                            113i: 449
                            113o: 451
                            113l: 450
                            113h: 452
                            114i: 453
                            114o: 455
                            114l: 454
                            114h: 456
                            115i: 457
                            115o: 459
                            115l: 458
                            115h: 460
                            116i: 461
                            116o: 463
                            116l: 462
                            116h: 464
                            117i: 465
                            117o: 467
                            117l: 466
                            117h: 468
                            118i: 469
                            118o: 471
                            118l: 470
                            118h: 472
                            119i: 473
                            119o: 475
                            119l: 474
                            119h: 476
                            120i: 477
                            120o: 479
                            120l: 478
                            120h: 480
                            121i: 481
                            121o: 483
                            121l: 482
                            121h: 484
                            122i: 485
                            122o: 487
                            122l: 486
                            122h: 488
                            123i: 489
                            123o: 491
                            123l: 490
                            123h: 492
                            124i: 493
                            124o: 495
                            124l: 494
                            124h: 496
                            125i: 497
                            125o: 499
                            125l: 498
                            125h: 500
                            126i: 501
                            126o: 503
                            126l: 502
                            126h: 504
                            127i: 505
                            127o: 507
                            127l: 506
                            127h: 508
                            128i: 509
                            128o: 511
                            128l: 510
                            128h: 512
                            129i: 513
                            129o: 515
                            129l: 514
                            129h: 516
                            130i: 517
                            130o: 519
                            130l: 518
                            130h: 520
                            131i: 521
                            131o: 523
                            131l: 522
                            131h: 524
                            132i: 525
                            132o: 527
                            132l: 526
                            132h: 528
                            133i: 529
                            133o: 531
                            133l: 530
                            133h: 532
                            134i: 533
                            134o: 535
                            134l: 534
                            134h: 536
                            135i: 537
                            135o: 539
                            135l: 538
                            135h: 540
                            136i: 541
                            136o: 543
                            136l: 542
                            136h: 544
                            137i: 545
                            137o: 547
                            137l: 546
                            137h: 548
                            138i: 549
                            138o: 551
                            138l: 550
                            138h: 552
                            139i: 553
                            139o: 555
                            139l: 554
                            139h: 556
                            140i: 557
                            140o: 559
                            140l: 558
                            140h: 560
                          areas:
                            '106':
                              loop: 106
                              surface: 106
                            '107':
                              loop: 107
                              surface: 107
                            '108':
                              loop: 108
                              surface: 108
                            '109':
                              loop: 109
                              surface: 109
                            '110':
                              loop: 110
                              surface: 110
                            '111':
                              loop: 111
                              surface: 111
                            '112':
                              loop: 112
                              surface: 112
                            '113':
                              loop: 113
                              surface: 113
                            '114':
                              loop: 114
                              surface: 114
                            '115':
                              loop: 115
                              surface: 115
                            '116':
                              loop: 116
                              surface: 116
                            '117':
                              loop: 117
                              surface: 117
                            '118':
                              loop: 118
                              surface: 118
                            '119':
                              loop: 119
                              surface: 119
                            '120':
                              loop: 120
                              surface: 120
                            '121':
                              loop: 121
                              surface: 121
                            '122':
                              loop: 122
                              surface: 122
                            '123':
                              loop: 123
                              surface: 123
                            '124':
                              loop: 124
                              surface: 124
                            '125':
                              loop: 125
                              surface: 125
                            '126':
                              loop: 126
                              surface: 126
                            '127':
                              loop: 127
                              surface: 127
                            '128':
                              loop: 128
                              surface: 128
                            '129':
                              loop: 129
                              surface: 129
                            '130':
                              loop: 130
                              surface: 130
                            '131':
                              loop: 131
                              surface: 131
                            '132':
                              loop: 132
                              surface: 132
                            '133':
                              loop: 133
                              surface: 133
                            '134':
                              loop: 134
                              surface: 134
                            '135':
                              loop: 135
                              surface: 135
                            '136':
                              loop: 136
                              surface: 136
                            '137':
                              loop: 137
                              surface: 137
                            '138':
                              loop: 138
                              surface: 138
                            '139':
                              loop: 139
                              surface: 139
                            '140':
                              loop: 140
                              surface: 140
                        insulation:
                          points:
                            106ih: 845
                            106il: 846
                            106oh: 847
                            106ol: 848
                            107ih: 853
                            107il: 854
                            107oh: 855
                            107ol: 856
                            108ih: 861
                            108il: 862
                            108oh: 863
                            108ol: 864
                            109ih: 869
                            109il: 870
                            109oh: 871
                            109ol: 872
                            110ih: 877
                            110il: 878
                            110oh: 879
                            110ol: 880
                            111ih: 885
                            111il: 886
                            111oh: 887
                            111ol: 888
                            112ih: 893
                            112il: 894
                            112oh: 895
                            112ol: 896
                            113ih: 901
                            113il: 902
                            113oh: 903
                            113ol: 904
                            114ih: 909
                            114il: 910
                            114oh: 911
                            114ol: 912
                            115ih: 917
                            115il: 918
                            115oh: 919
                            115ol: 920
                            116ih: 925
                            116il: 926
                            116oh: 927
                            116ol: 928
                            117ih: 933
                            117il: 934
                            117oh: 935
                            117ol: 936
                            118ih: 941
                            118il: 942
                            118oh: 943
                            118ol: 944
                            119ih: 949
                            119il: 950
                            119oh: 951
                            119ol: 952
                            120ih: 957
                            120il: 958
                            120oh: 959
                            120ol: 960
                            121ih: 965
                            121il: 966
                            121oh: 967
                            121ol: 968
                            122ih: 973
                            122il: 974
                            122oh: 975
                            122ol: 976
                            123ih: 981
                            123il: 982
                            123oh: 983
                            123ol: 984
                            124ih: 989
                            124il: 990
                            124oh: 991
                            124ol: 992
                            125ih: 997
                            125il: 998
                            125oh: 999
                            125ol: 1000
                            126ih: 1005
                            126il: 1006
                            126oh: 1007
                            126ol: 1008
                            127ih: 1013
                            127il: 1014
                            127oh: 1015
                            127ol: 1016
                            128ih: 1021
                            128il: 1022
                            128oh: 1023
                            128ol: 1024
                            129ih: 1029
                            129il: 1030
                            129oh: 1031
                            129ol: 1032
                            130ih: 1037
                            130il: 1038
                            130oh: 1039
                            130ol: 1040
                            131ih: 1045
                            131il: 1046
                            131oh: 1047
                            131ol: 1048
                            132ih: 1053
                            132il: 1054
                            132oh: 1055
                            132ol: 1056
                            133ih: 1061
                            133il: 1062
                            133oh: 1063
                            133ol: 1064
                            134ih: 1069
                            134il: 1070
                            134oh: 1071
                            134ol: 1072
                            135ih: 1077
                            135il: 1078
                            135oh: 1079
                            135ol: 1080
                            136ih: 1085
                            136il: 1086
                            136oh: 1087
                            136ol: 1088
                            137ih: 1093
                            137il: 1094
                            137oh: 1095
                            137ol: 1096
                            138ih: 1101
                            138il: 1102
                            138oh: 1103
                            138ol: 1104
                            139ih: 1109
                            139il: 1110
                            139oh: 1111
                            139ol: 1112
                            140ih: 1117
                            140il: 1118
                            140oh: 1119
                            140ol: 1120
                          lines: {}
                          areas:
                            '4':
                              loop: null
                              surface: null
                        current_sign: 1
                    conductor_name: SMC11T150
                    conductors_number: 35
        type: reversed-block-coil
        bore_center:
          x: 0.0
          y: 0.0
    physical_order: [{coil: 1, pole: 1, layer: 1, winding: 1, block: 1}, {coil: 1,
        pole: 2, layer: 1, winding: 2, block: 2}, {coil: 1, pole: 1, layer: 1, winding: 1,
        block: 3}, {coil: 1, pole: 2, layer: 1, winding: 2, block: 4}]
    anticlockwise_order:
      coils:
        1:
          layers:
            1: [{pole: 1, winding: 1, block: 1}, {pole: 1, winding: 1, block: 3},
              {pole: 2, winding: 2, block: 2}, {pole: 2, winding: 2, block: 4}]
    concentric_coils:
      ? - 0.0
        - 0.0
      : [1]
    max_radius: 0.0
  iron:
    quadrants: {}
    max_radius: 0.0
  wedges:
    coils: {}
  air:
    points: {}
    lines: {}
    areas: {}
  air_inf:
    points: {}
    lines: {}
    areas: {}
  symmetric_boundaries:
    points: {}
    lines: {}
    areas: {}
  thin_shells:
    mid_layers_ht_to_ht: {}
    mid_layers_wdg_to_ht: {}
    mid_layers_ht_to_wdg: {}
    mid_layers_wdg_to_wdg: {}
    mid_poles: {}
    mid_windings: {}
    mid_turn_blocks: {}
    mid_wedge_turn: {}
    mid_layers_aux: {}
    ins_thickness:
      mid_pole: {}
      mid_layer: {}
      mid_winding: {}
  insulation:
    coils:
      1:
        group:
          2:
            ins:
              points: {}
              lines:
                1l: 561
                1bh: 562
                71o: 563
                72o71h: 564
                73o72h: 565
                74o73h: 566
                75o74h: 567
                76o75h: 568
                77o76h: 569
                78o77h: 570
                79o78h: 571
                80o79h: 572
                81o80h: 573
                82o81h: 574
                83o82h: 575
                84o83h: 576
                85o84h: 577
                86o85h: 578
                87o86h: 579
                88o87h: 580
                89o88h: 581
                90o89h: 582
                91o90h: 583
                92o91h: 584
                93o92h: 585
                94o93h: 586
                95o94h: 587
                96o95h: 588
                97o96h: 589
                98o97h: 590
                99o98h: 591
                100o99h: 592
                101o100h: 593
                102o101h: 594
                103o102h: 595
                104o103h: 596
                105o104h: 597
                mid_pole_i: 598
                mid_pole_o: 599
                1bl: 600
                70o: 601
                69o70h: 602
                68o69h: 603
                67o68h: 604
                66o67h: 605
                65o66h: 606
                64o65h: 607
                63o64h: 608
                62o63h: 609
                61o62h: 610
                60o61h: 611
                59o60h: 612
                58o59h: 613
                57o58h: 614
                56o57h: 615
                55o56h: 616
                54o55h: 617
                53o54h: 618
                52o53h: 619
                51o52h: 620
                50o51h: 621
                49o50h: 622
                48o49h: 623
                47o48h: 624
                46o47h: 625
                45o46h: 626
                44o45h: 627
                43o44h: 628
                42o43h: 629
                41o42h: 630
                40o41h: 631
                39o40h: 632
                38o39h: 633
                37o38h: 634
                36o37h: 635
                1h: 712
              areas:
                '2':
                  loop: 141
                  surface: 141
            blocks: [[1, 1, 1, 3], [2, 1, 2, 2]]
            wedges: []
          1:
            ins:
              points: {}
              lines:
                1l: 636
                1bh: 637
                106o: 638
                107o106h: 639
                108o107h: 640
                109o108h: 641
                110o109h: 642
                111o110h: 643
                112o111h: 644
                113o112h: 645
                114o113h: 646
                115o114h: 647
                116o115h: 648
                117o116h: 649
                118o117h: 650
                119o118h: 651
                120o119h: 652
                121o120h: 653
                122o121h: 654
                123o122h: 655
                124o123h: 656
                125o124h: 657
                126o125h: 658
                127o126h: 659
                128o127h: 660
                129o128h: 661
                130o129h: 662
                131o130h: 663
                132o131h: 664
                133o132h: 665
                134o133h: 666
                135o134h: 667
                136o135h: 668
                137o136h: 669
                138o137h: 670
                139o138h: 671
                140o139h: 672
                mid_pole_i: 673
                mid_pole_o: 674
                1bl: 675
                35o: 676
                34o35h: 677
                33o34h: 678
                32o33h: 679
                31o32h: 680
                30o31h: 681
                29o30h: 682
                28o29h: 683
                27o28h: 684
                26o27h: 685
                25o26h: 686
                24o25h: 687
                23o24h: 688
                22o23h: 689
                21o22h: 690
                20o21h: 691
                19o20h: 692
                18o19h: 693
                17o18h: 694
                16o17h: 695
                15o16h: 696
                14o15h: 697
                13o14h: 698
                12o13h: 699
                11o12h: 700
                10o11h: 701
                9o10h: 702
                8o9h: 703
                7o8h: 704
                6o7h: 705
                5o6h: 706
                4o5h: 707
                3o4h: 708
                2o3h: 709
                1o2h: 710
                1h: 711
              areas:
                '1':
                  loop: 142
                  surface: 142
            blocks: [[2, 1, 2, 4], [1, 1, 1, 1]]
            wedges: []
domains:
  groups_entities:
    iron: {}
    air: []
    symmetric_boundaries:
      x: []
      y: []
  physical_groups:
    blocks: {}
    wedges: {}
    insulations:
      curves: {}
      surfaces: {}
    iron:
      curves: {}
      surfaces: {}
    air_inf: null
    air_inf_bnd: null
    air: null
    symmetric_boundaries:
      normal_free: null
      tangential_free: null
    half_turns_points: null
